
SELECT sfid, status, contact__c, paid__c, effectivedate FROM salesforce.order
WHERE order_id__c IN (
'dfxn37obl',
'dgri18gua',
'de4i34ikn',
'de4j08dkl',
'dghr54tug',
'dfyp06xuw',
'dfyp10pet',
'dfcq44mgs',
'dfuq28gus',
'dghi06bhk',
'dg1o04ect',
'dfti54hsi',
'dghu10ddl',
'dglb07kce',
'dgwe35hms',
'dgxi10jyh',
'dfii24xiv',
'dfim48olj',
'dguj58pfd',
'ddtu18cxj',
'dd4r20qxm',
'dgxh45pst',
'df6o20hxr',
'dghi54hxy',
'dfuk08ljh',
'dfct50djt',
'dfnu36ypw',
'dgym02vvg',
'dfnj26fiy',
'dfsp34uai',
'df1q54mqi',
'dgdi15xfj',
'dgul30wkq',
'df3f20ulw',
'dg1n33bcf',
'dfeh23wbf',
'dfwh59uqs',
'dgca00elg',
'dgpw12nsy',
'dgxt40qxe',
'df2i29iwu',
'dfsa38gvr',
'dg3j20fko',
'derc36oej',
'df6n10htp',
'dgot57pub',
'dguj20pxh',
'dftj08mhx',
'demg53ogy',
'dfdo16boc',
'df1i38lmn',
'df2l44roo',
'dgch07yfv',
'dewi06kco',
'dfui30jjo',
'dgki25rte',
'dexi25tte',
'de5k50dyl',
'dfgj20pbb',
'dfqp56opj',
'dfri08tup',
'dfwi27aje',
'dfxo22get',
'dfxo33ouk',
'dfzi57sxv',
'dffk29emd',
'dftr48qdy',
'dftr48xwc',
'dfmi23utm',
'dfsp35kxh',
'dgkj30eiq',
'dfbn32lgj',
'df6i36tuu',
'dgjq55hdc',
'dfcn04ufk',
'dfzt33erl',
'df4k57ask',
'df2i17wld',
'dgvg51hla',
'dg5l40yut',
'dfso48wom',
'dfhj34euc',
'dgpj11tep',
'de5j28nfq',
'df3j00ukc',
'deqj34wkj',
'dfli56lgk',
'de5j16evn',
'dfmo46mba',
'dgoi13jgm',
'dgvr07bir',
'dfrg29bcy',
'dfuj59cdb',
'df1n33iom',
'dgiu44fpy',
'dfww04rlq',
'dfyp11lig',
'dggp34xtn',
'dgbm59fsf',
'dgbt32aii',
'dgjq44wgd',
'deyo06jny',
'dewl00pdo',
'df6i34rkc',
'dfdn18bmc',
'dfoj19wig',
'deoi55vfn',
'df3n40uyq',
'de5q59bla',
'dejj05thp',
'dfek07uau',
'df2t09xab',
'dfyk07cii',
'dewi07ren',
'dffk27xfg',
'dftj38kif',
'dfii29dlj',
'dfdi04svk',
'dfem12lqi',
'dfkc20geu',
'dfbp04ylb',
'derr37tsy',
'ddvj15xia',
'deki08kpn',
'dffj35ece',
'dffj35acg',
'dftj23owp',
'de2i27ksa',
'dflj30yfg',
'dfoj56evx',
'dewi35ouv',
'dg2t16bdo',
'dfbi47edj',
'dfnu53jbj',
'dfuk46fsp',
'deqw40brd',
'dfsj26vdf',
'dfni27amp',
'dfni27wwv',
'dgxs03dvm',
'dftk06idv',
'dftl32net',
'dftr12aow',
'df1g12iba',
'dfyl24xby',
'dgek24nng',
'df6q46afq',
'dgxk33xbu',
'df4j53cwp',
'dgnf55xwn',
'dfro20fsg',
'dggw26sth',
'dgtm00qup',
'dgtm01rfi',
'dgux12wuo',
'dgzu01kqj',
'dgke43vuv',
'dfwu18kmd',
'dfmk55qfe',
'dgsg43bcd',
'dg1q11cfv',
'dfzu40lhw',
'dguj01map',
'dfwq02pdg',
'dgfw59ecx',
'df1k04pqa',
'dgeo38cjf',
'dejk00ahi',
'dexi55wnw',
'dfok34kgp',
'df3k37ykl',
'dfok09gyu',
'dfno37iev',
'df2l44ctm',
'dexk10pic',
'defj15hpd',
'deyq17apo',
'df2k27ded',
'df2k34ahp',
'dgej26rva',
'dfuh42ece',
'df6j39obp',
'df6m29uuf',
'dghl46hgs',
'dgmi32rne',
'dgfk34jtr',
'dewi18odp',
'deui45qfq',
'dgki58tpm',
'dfrc26xid',
'dfym14tjy',
'df4i04mjw',
'dfsi24sdt',
'detm33tbp',
'deho43afl',
'dfdi25saj',
'dfri04fyr',
'dfdj20rng',
'deti09vmv',
'df1i04swx',
'df5c17vou',
'df5c17oix',
'dgji07pmo',
'dfti43kgq',
'dgfl54wqo',
'dgfo37mpq',
'dfrr49kfp',
'dfsi34kjk',
'dfzi55iif',
'dgbj09htg',
'dgkj49dca',
'df3g52mcp',
'ddvj15rmr',
'detl06ytx',
'dfok10atp',
'de5i53pmr',
'dgln32dma',
'dfuk19snx',
'df1n10sja',
'dfhk16saa',
'dfkj38blf',
'df1j45xkp',
'dfkn23mpi',
'df2j16jvy',
'dgkj36rhn',
'dfvg30qyj',
'dfyi07ipk',
'df1k00vjf',
'df4s52tqf',
'dgdi19eyn',
'dgkk07bha',
'dgfp50fjm',
'dghq46gln',
'dgjp33ejg',
'dgoq08wvh',
'dgkf59ail',
'dfeg45usc',
'dgij26bsq',
'dgkl01hqs',
'dgow47uye',
'dgpj54xwn',
'dgwp16gwh',
'dgum37mta',
'dgvt06fvw',
'dgxm28vwq',
'dgyf27qxj',
'dfge27atr',
'deyg05oad',
'dfhi59nds',
'dfmo46jcf',
'dd6o05wtu',
'dfnj40gmj',
'dfpn13sdd',
'dfpp26tax',
'dfyi59jxk',
'dfyi59cmc',
'dgbo38pqw',
'df3i57xnc',
'dgij50cpq',
'df1t24vmd',
'dexi56xvl',
'dfht06vvi',
'dgym50cbu',
'dguv32uat',
'dgph33hpt',
'df6h48dot',
'dgfl35jha',
'ddrk26jxi',
'dgkk04hcr',
'dejf27rld',
'dftu41uyp',
'dgdi18vsd',
'de4j05rxw',
'deki40ytj',
'deki40cey',
'dfzj34dgb',
'dgbj54wat',
'dfkg09tnf',
'dfvk18tfr',
'dfei51fhw',
'dfze52chd',
'dfyt34igs',
'dfkt00wnw',
'dfsi19pjm',
'df2l03xxv',
'dfuj27pqx',
'dfsf51deo',
'dfvk35wru',
'df5h12wak',
'dgbl18fcj',
'dgbf25pgr',
'dflk04wwc',
'dgdh52cby',
'dfnl58wse',
'dfhl26edj',
'dgmk25vsw',
'dgxj09cbu',
'dftp50joo',
'dgqk35axr',
'dfcg10wfc',
'dd4o22afh',
'dfiu12kxj',
'dfnk37iav',
'dftm26xdd',
'dfmu25owq',
'dgok35lvn',
'dgyo26tkm',
'dfuo10niq',
'dghs39oro',
'deqj13lhh',
'dgrh43for',
'dfip12vps',
'dgcm42sbn',
'dggs14oro',
'dgjr37rwc',
'dgjm06ibm',
'dgfr12hiv',
'dfej47brp',
'dfsi08lfm',
'ddxk54yqj',
'degi37kdw',
'deui11wfi',
'dfwq41vlm',
'dfyn07npn',
'df3s19dxq',
'df3s19bud',
'dgbj45gnb',
'dgcm18ngx',
'dgcm18wng',
'dgdi06ngh',
'dggl41tlv',
'dggl44mgu',
'dggl46jwi',
'dgpm16isl',
'dgqh37omj',
'dgqh40fcq',
'df1g09ffl',
'dgzp54gur',
'df5q27yrw',
'df5s47abg',
'dgcj29aem',
'dgcj29cfi',
'delm35dbv',
'dfvu16wfm',
'df6o35wwb',
'dgqt05paf',
'dfrk38asw',
'dfxn51xqp',
'dgnu21jre',
'dfmj00pde',
'df5o11rhw',
'df5q24giu',
'dggh15eqc',
'dggk04hov',
'dgjj16ugx',
'dgjj16atr',
'dfvg19lbg',
'dgvh35fvx',
'dgdh30qbw',
'dgjq21fbk',
'dfbr45iys',
'dgip36frs',
'dfxl22xmp',
'dgrn33vsv'
)
-- AND locale__c NOT LIKE 'ch-%'
-- AND paid__c IS NOT NULL
-- AND status LIKE 'CANCEL%'
-- AND status LIKE 'ERROR%'
;
