"month";"total_lftime_revenue";"total_lftime_hours";"average_lftime_cost_partners";"average_lftime_cost_cleaners_bat";"average_lftime_costs";"lftime_gp";"lftime_average_gpm"
"2018-06";"218140,98";"8815";"112303,1";"34114,05";"146417,15";"71723,83";"0,328795763180307"
"2018-05";"286114,2";"10900,5";"138872,37";"42184,935";"181057,305";"105056,895";"0,367185183398797"
"2018-04";"145452,02";"5480,35";"69819,659";"21208,9545";"91028,6135";"54423,4065";"0,374167416169263"
"2018-03";"139939,82";"5258,04";"66987,4296";"20348,6148";"87336,0444";"52603,7756";"0,375902838805995"
"2018-02";"111867,61";"4063,5";"51768,99";"15725,745";"67494,735";"44372,875";"0,396655251685452"
"2018-01";"120160,08";"4201,1";"53522,014";"16258,257";"69780,271";"50379,809";"0,419272432242056"
"2017-12";"28387,24";"1049,2";"13366,808";"4060,404";"17427,212";"10960,028";"0,386089947455265"
"2017-11";"36647,19";"1376";"17530,24";"5325,12";"22855,36";"13791,83";"0,3763407235316"
"2017-10";"11604,3";"445,05";"5669,937";"1722,3435";"7392,2805";"4212,0195";"0,362970579871255"
"2017-09";"38386,09";"1403,95";"17886,323";"5433,2865";"23319,6095";"15066,4805";"0,392498441492739"
"2017-08";"14960,67";"546,1";"6957,314";"2113,407";"9070,721";"5889,949";"0,393695536363011"
"2017-07";"16475,18";"602";"7669,48";"2329,74";"9999,22";"6475,96";"0,3930737023814"
"2017-06";"8967,94";"348,3";"4437,342";"1347,921";"5785,263";"3182,677";"0,354894992606998"
"2017-05";"6576,5";"253,7";"3232,138";"981,819";"4213,957";"2362,543";"0,359240173344484"
"2017-04";"35762,15";"1524,35";"19420,219";"5899,2345";"25319,4535";"10442,6965";"0,292004158027412"
"2017-03";"2915,66";"163,4";"2081,716";"632,358";"2714,074";"201,586000000001";"0,0691390628536937"
"2017-02";"723,2";"45,15";"575,211";"174,7305";"749,9415";"-26,7414999999999";"-0,0369766316371679"
"2017-01";"2251,15";"79,55";"1013,467";"307,8585";"1321,3255";"929,8245";"0,41304422184217"
"2016-12";"0";"34,4";"438,256";"133,128";"571,384";"-571,384";"0"
"2016-11";"0";"10,75";"136,955";"41,6025";"178,5575";"-178,5575";"0"
"2016-10";"672,88";"25,8";"328,692";"99,846";"428,538";"244,342";"0,363128641065272"
"2016-09";"1497,48";"83,85";"1068,249";"324,4995";"1392,7485";"104,7315";"0,0699384966744132"
"2016-08";"1302";"51,6";"657,384";"199,692";"857,076";"444,924";"0,341723502304148"
"2016-07";"0";"8,6";"109,564";"33,282";"142,846";"-142,846";"0"
"2016-06";"0";NULL;NULL;NULL;NULL;NULL;"0"
"2016-05";"0";NULL;NULL;NULL;NULL;NULL;"0"
"2016-04";"0";"12,9";"164,346";"49,923";"214,269";"-214,269";"0"
"2016-03";"1989,68";"98,9";"1259,986";"382,743";"1642,729";"346,951";"0,17437527642636"
"2016-02";"0";NULL;NULL;NULL;NULL;NULL;"0"
"2016-01";"0";NULL;NULL;NULL;NULL;NULL;"0"
"2015-12";"0";"90,3";"1150,422";"349,461";"1499,883";"-1499,883";"0"
