
-- 15,9
-- UPDATE salesforce.order SET pph__c = 15.9
SELECT sfid, status, contact__c, pph__c, paid__c, effectivedate FROM salesforce.order
WHERE sfid IN (
'80120000000tT7cAAE',
'80120000000dNoDAAU',
'80120000000dVjvAAE',
'80120000000dOWAAA2',
'80120000000dYw4AAE',
'80120000000dS8SAAU',
'80120000000tBOzAAM',
'80120000000tWVzAAM',
'80120000000dLhtAAE',
'80120000000dF1NAAU',
'80120000000dVZHAA2',
'80120000000dTwnAAE',
'80120000000dSsuAAE',
'80120000000d8EeAAI',
'80120000000dNo8AAE',
'80120000000dDZSAA2',
'80120000000dU01AAE',
'80120000000dVeMAAU',
'801200000015l5kAAA',
'80120000000dWw7AAE',
'80120000000dLtfAAE',
'80120000000dKa3AAE',
'80120000000dYvzAAE',
'80120000000dLcaAAE',
'80120000000tX3NAAU',
'80120000000dANTAA2',
'80120000000dWcWAAU',
'80120000000dLceAAE',
'80120000000dI9oAAE',
'80120000000dXYfAAM',
'80120000000tPB1AAM',
'80120000000dDaGAAU',
'80120000000dQouAAE',
'80120000000dOpbAAE',
'80120000000tKjrAAE',
'80120000000tVp0AAE',
'80120000000dIFIAA2',
'80120000000dG1EAAU',
'80120000000dTvQAAU',
'80120000000d7ZCAAY',
'80120000000dVOTAA2',
'80120000000tXHAAA2',
'80120000000dZwPAAU',
'80120000000d8EjAAI',
'80120000000dTdvAAE',
'80120000000d9c3AAA',
'80120000000dD9FAAU',
'80120000000dFFPAA2',
'80120000000dTzIAAU',
'801200000015lVTAAY',
'80120000000dHAHAA2',
'80120000000d8SgAAI',
'80120000000dIICAA2',
'80120000000dUkdAAE',
'80120000000dDAwAAM',
'80120000000syirAAA',
'80120000000dIGGAA2',
'80120000000dLhUAAU',
'80120000000dDF3AAM',
'80120000000tKXbAAM',
'80120000000dJe2AAE',
'80120000000dKdRAAU',
'80120000000tQuMAAU',
'80120000000t9XzAAI',
'80120000000dP68AAE',
'801200000015l4hAAA',
'80120000000dID2AAM',
'80120000000tAtSAAU',
'80120000000dAcJAAU',
'80120000000dSL2AAM',
'80120000000tW8MAAU',
'80120000000dHACAA2',
'801200000015kL3AAI',
'80120000000dRdFAAU',
'80120000000dIIHAA2',
'80120000000szVtAAI',
'80120000000dTe5AAE',
'80120000000dSAsAAM',
'80120000000dThOAAU',
'80120000000dJM8AAM',
'80120000000dHf5AAE',
'80120000000dBv7AAE',
'80120000000dRdKAAU',
'80120000000tD0pAAE',
'80120000000dQlbAAE',
'80120000000dVLKAA2',
'80120000000TIc0AAG',
'80120000000dTvVAAU',
'80120000000dJdxAAE',
'80120000000TEbDAAW',
'801200000015kL8AAI',
'801200000015lVYAAY',
'80120000000d9byAAA',
'80120000000dC07AAE',
'80120000000tOtMAAU',
'80120000000tMG3AAM',
'80120000000dX2yAAE',
'80120000000tPWnAAM',
'80120000000dUkiAAE',
'80120000000tWJFAA2',
'80120000000dSAnAAM',
'80120000000dD9KAAU',
'80120000000dP69AAE',
'80120000000dHyWAAU',
'80120000000d81aAAA',
'80120000000dLnXAAU',
'80120000000tSyfAAE',
'80120000000syfOAAQ',
'80120000000tCXxAAM',
'80120000000tLUOAA2',
'80120000000d7LoAAI',
'801200000015k97AAA',
'801200000015kr4AAA',
'80120000000dAXxAAM',
'80120000000dJUbAAM',
'80120000000dVF7AAM',
'80120000000dWdPAAU',
'80120000000TL0nAAG',
'80120000000suCqAAI',
'80120000000tFLLAA2',
'80120000000tJ1PAAU',
'80120000000tMxHAAU',
'80120000000tR2VAAU',
'80120000000tRxMAAU',
'80120000000tSDFAA2',
'80120000000tSGEAA2',
'80120000000tSGJAA2',
'80120000000tVpFAAU',
'80120000000tXDIAA2',
'80120000000d7HSAAY',
'80120000000d7OdAAI',
'80120000000d7VeAAI',
'801200000015lH2AAI',
'80120000000d92yAAA',
'80120000000d933AAA',
'80120000000dAPyAAM',
'80120000000dAm4AAE',
'80120000000dEg5AAE',
'80120000000dFFFAA2',
'80120000000dJUWAA2',
'80120000000dKOHAA2',
'80120000000dKS4AAM',
'80120000000dLrjAAE',
'80120000000dLuiAAE',
'80120000000dLy1AAE',
'80120000000dMjlAAE',
'80120000000dMjqAAE',
'80120000000dMjvAAE',
'80120000000dNFwAAM',
'80120000000dNG1AAM',
'80120000000dNm7AAE',
'80120000000dNmHAAU',
'80120000000dPxvAAE',
'80120000000dPy0AAE',
'80120000000dPyPAAU',
'80120000000dQTcAAM',
'80120000000dQgRAAU',
'80120000000dSNXAA2',
'80120000000dSPxAAM',
'80120000000dUV4AAM',
'80120000000dVKqAAM',
'80120000000dVOJAA2',
'80120000000dVVyAAM',
'80120000000dVbcAAE',
'80120000000dVl8AAE',
'80120000000dWnUAAU',
'80120000000dWqnAAE',
'80120000000dWqsAAE',
'80120000000dWqxAAE',
'80120000000dWtDAAU'
)
--AND paid__c IS NOT NULL
--AND status LIKE 'CANCEL%'
--AND effectivedate < DATE '2016-05-25'
--AND pph__c >= 15.9
;


-- 16,9
-- UPDATE salesforce.order SET pph__c = 16.9
SELECT sfid, status, contact__c, pph__c, paid__c, effectivedate FROM salesforce.order
WHERE sfid IN (
'80120000000spC7AAI',
'80120000000syR2AAI',
'80120000000t3e6AAA',
'80120000000tHOqAAM',
'80120000000tQi6AAE',
'80120000000tVSGAA2',
'80120000000tWNgAAM',
'80120000000d9rmAAA',
'80120000000dLouAAE',
'80120000000dQYcAAM',
'80120000000dUH2AAM',
'80120000000tPxFAAU',
'80120000000tQaWAAU',
'80120000000tQabAAE',
'801200000015k2LAAQ',
'801200000015krTAAQ',
'801200000015lKzAAI',
'80120000000dIdAAAU',
'80120000000dLx8AAE',
'80120000000dLxhAAE',
'80120000000dNvnAAE',
'80120000000dNzpAAE',
'80120000000dVs4AAE',
'80120000000dVsEAAU',
'80120000000dWCnAAM',
'80120000000dWMnAAM',
'80120000000tD0pAAE',
'80120000000dJdxAAE',
'80120000000dJe2AAE',
'80120000000sqs4AAA',
'80120000000stbgAAA',
'80120000000swpTAAQ',
'80120000000t0HTAAY',
'80120000000t1YvAAI',
'80120000000t2D9AAI',
'80120000000t2DEAAY',
'80120000000tBUsAAM',
'80120000000tBV2AAM',
'80120000000tBVCAA2',
'80120000000tGeJAAU',
'80120000000tIp4AAE',
'80120000000tKGLAA2',
'80120000000tKGQAA2',
'80120000000tLbeAAE',
'80120000000tNKBAA2',
'80120000000tSEcAAM',
'80120000000tT1ZAAU',
'80120000000d7K2AAI',
'80120000000d8KIAAY',
'801200000015l4rAAA',
'80120000000d8afAAA',
'80120000000d8akAAA',
'80120000000dA5FAAU',
'80120000000dAFAAA2',
'80120000000dAaDAAU',
'80120000000dBV9AAM',
'80120000000dBt1AAE',
'80120000000dDA8AAM',
'80120000000dDFwAAM',
'80120000000dGU6AAM',
'80120000000dJQUAA2',
'80120000000dKRaAAM',
'80120000000dKpNAAU',
'80120000000dLqWAAU',
'80120000000dMwfAAE',
'80120000000dNtrAAE',
'80120000000dNukAAE',
'80120000000dO96AAE',
'80120000000dOMFAA2',
'80120000000dOaqAAE',
'80120000000dQGTAA2',
'80120000000dQGdAAM',
'80120000000dQUGAA2',
'80120000000dR6AAAU',
'80120000000dRvEAAU',
'80120000000dRvOAAU',
'80120000000dSSrAAM',
'80120000000dSWeAAM',
'80120000000dSWjAAM',
'80120000000dSesAAE',
'80120000000dTcdAAE',
'80120000000dTlzAAE',
'80120000000dUeBAAU',
'80120000000dVPHAA2',
'80120000000dVmQAAU',
'80120000000dWfzAAE',
'80120000000dWjSAAU',
'80120000000dWzaAAE',
'80120000000dZrZAAU',
'80120000000dZreAAE',
'801200000010xXIAAY',
'801200000010xXNAAY',
'80120000000sxaDAAQ',
'80120000000syFpAAI',
'80120000000szyWAAQ',
'80120000000tAIvAAM',
'80120000000tHE2AAM',
'80120000000tInIAAU',
'80120000000tInNAAU',
'80120000000tKKNAA2',
'80120000000tKKSAA2',
'80120000000tP9jAAE',
'80120000000tPV6AAM',
'80120000000tQljAAE',
'80120000000tReKAAU',
'80120000000tTJJAA2',
'80120000000tWpuAAE',
'80120000000tWpzAAE',
'80120000000tWviAAE',
'80120000000tWvnAAE',
'80120000000d89yAAA',
'80120000000d8A3AAI',
'80120000000d8faAAA',
'80120000000dDYeAAM',
'80120000000dDnAAAU',
'80120000000dFzmAAE',
'80120000000dG1JAAU',
'80120000000dKWuAAM',
'80120000000dOYuAAM',
'80120000000dOgZAAU',
'80120000000dPHzAAM',
'80120000000dPY7AAM',
'80120000000dQzsAAE',
'80120000000dTeKAAU',
'80120000000dUHCAA2',
'80120000000dUHHAA2',
'80120000000dUWHAA2',
'80120000000dX38AAE',
'80120000000tHd7AAE',
'80120000000tMP0AAM',
'80120000000tVNzAAM',
'80120000000tVO4AAM',
'80120000000dDOAAA2'
)
--AND paid__c IS NOT NULL
--AND status LIKE 'CANCEL%'
--AND effectivedate < DATE '2016-05-25'
--AND pph__c >= 16.9
;






-- 15,9 recurrency check
SELECT sfid, status, contact__c, pph__c, paid__c, effectivedate FROM salesforce.order
WHERE contact__c IN (
'0032000001SiwmrAAB',
'0032000001R46kpAAB',
'0032000001MXjB7AAL',
'0032000001R2PkNAAV',
'0032000001WxMcDAAV',
'0032000001VTUDaAAP',
'0032000001KpJ7LAAV',
'0032000001KpJ7LAAV',
'0032000001UEYMqAAP',
'0032000001UCjtvAAD',
'0032000001UCjtvAAD',
'0032000001HjEudAAF',
'0032000001HjEudAAF',
'0032000001Pn4RTAAZ',
'0032000001UFfXNAA1',
'0032000001N1R9dAAF',
'0032000001OdpmiAAB',
'0032000001R46kpAAB',
'0032000001WQJ5zAAH',
'0032000001SPuaWAAT',
'0032000001YDFt7AAH',
'0032000001YDFt7AAH',
'0032000001WZ2V1AAL',
'0032000001PlZ98AAF',
'0032000001MXcvnAAD',
'0032000001Yk10nAAB',
'0032000001RhtFnAAJ',
'0032000001QcHx4AAF',
'0032000001N0W2PAAV',
'0032000001HjFHfAAN',
'0032000001UDASBAA5',
'0032000001Qb619AAB',
'0032000001Qb619AAB',
'0032000001VTUDaAAP',
'0032000001XvmA7AAJ',
'0032000001UvcqYAAR',
'0032000001Skpl9AAB',
'0032000001KDEFsAAP',
'0032000001UEYMqAAP',
'0032000001HjFHfAAN',
'0032000001HjFHfAAN',
'0032000001TjU7PAAV',
'0032000001TjU7PAAV',
'0032000001KCGBlAAP',
'0032000001YDg26AAD',
'0032000001OCo2QAAT',
'0032000001TF7zcAAD',
'0032000001VTUDaAAP',
'0032000001OCo2QAAT',
'0032000001TmD9XAAV',
'0032000001WxMcDAAV',
'0032000001WxMcDAAV',
'0032000001R4vnmAAB',
'0032000001RkjiKAAR',
'0032000001MVSWZAA5',
'0032000001SNWQTAA5',
'0032000001QcHx4AAF',
'0032000001MXjB7AAL',
'0032000001PX513AAD',
'0032000001TmCGKAA3',
'0032000001TmCGKAA3',
'0032000001M04pRAAR',
'0032000001MXjB7AAL',
'0032000001MXjB7AAL',
'0032000001SiwmrAAB',
'0032000001SiwmrAAB',
'0032000001W9bCyAAJ',
'0032000001W9bCyAAJ',
'0032000001SNyXiAAL',
'0032000001NNUHoAAP',
'0032000001HjEudAAF',
'0032000001HjEudAAF',
'0032000001O0DyPAAV',
'0032000001O0DyPAAV',
'0032000001MXjB7AAL',
'0032000001OdpmiAAB',
'0032000001Pn4RTAAZ',
'0032000001R4vnmAAB',
'0032000001IA3gOAAT',
'0032000001Skpl9AAB',
'0032000001Skpl9AAB',
'0032000001N1bdIAAR',
'0032000001KEK3UAAX',
'0032000001KEK3UAAX',
'0032000001OFSQfAAP',
'0032000001UEzWUAA1',
'0032000001N1IMWAA3',
'0032000001WA6IrAAL',
'0032000001MXcvnAAD',
'0032000001PlZ98AAF',
'0032000001WQJ5zAAH',
'0032000001Yk10nAAB',
'0032000001MVSWZAA5',
'0032000001UDASBAA5',
'0032000001RkjiKAAR',
'0032000001WZ2V1AAL',
'0032000001Skpl9AAB',
'0032000001Skpl9AAB',
'0032000001M04pRAAR',
'0032000001RhtFnAAJ',
'0032000001UvcqYAAR',
'0032000001R57IuAAJ',
'0032000001WA6IrAAL',
'0032000001R2PkNAAV',
'0032000001N0W2PAAV',
'0032000001YDzYcAAL',
'0032000001QZkvYAAT',
'0032000001KDEFsAAP',
'0032000001OCo2QAAT',
'0032000001MUmwUAAT',
'0032000001SNyXiAAL',
'0032000001TEPfIAAX',
'0032000001QZkvYAAT',
'0032000001JsGdsAAF',
'0032000001JsGdsAAF',
'0032000001SNWQTAA5',
'0032000001OCo2QAAT',
'0032000001MUmwUAAT',
'0032000001SPuaWAAT',
'0032000001NNUHoAAP',
'0032000001Tl92rAAB',
'0032000001Tl92rAAB',
'0032000001MUmwUAAT',
'0032000001UFfXNAA1',
'0032000001TEPfIAAX',
'0032000001HjFBlAAN',
'0032000001YDzYcAAL',
'0032000001MXcvnAAD',
'0032000001YDFt7AAH',
'0032000001WZ2V1AAL',
'0032000001YDg26AAD',
'0032000001TjU7PAAV',
'0032000001HjFBlAAN',
'0032000001OCo2QAAT',
'0032000001SiZm7AAF',
'0032000001PX513AAD',
'0032000001N1R9dAAF',
'0032000001UEYMqAAP',
'0032000001PX513AAD',
'0032000001TEPfIAAX',
'0032000001SiZm7AAF',
'0032000001IA3gOAAT',
'0032000001SiZm7AAF',
'0032000001W9bCyAAJ',
'0032000001HjFBlAAN',
'0032000001PlZ98AAF',
'0032000001MXjB7AAL',
'0032000001RhtFnAAJ',
'0032000001N0W2PAAV',
'0032000001UClzJAAT',
'0032000001UClzJAAT',
'0032000001YDzYcAAL',
'0032000001UDASBAA5',
'0032000001Tl92rAAB',
'0032000001JsGdsAAF',
'0032000001KCGBlAAP',
'0032000001XvmA7AAJ',
'0032000001Yk10nAAB',
'0032000001N1bdIAAR',
'0032000001TmCGKAA3',
'0032000001TF7zcAAD',
'0032000001R57IuAAJ',
'0032000001TDXmrAAH',
'0032000001TDXmrAAH',
'0032000001R46kpAAB',
'0032000001KEK3UAAX',
'0032000001SNyXiAAL',
'0032000001M04pRAAR',
'0032000001KCGBlAAP',
'0032000001KCGBlAAP'
)
AND paid__c IS NULL
--AND status NOT LIKE 'CANCEL%'
--AND status NOT LIKE 'ERROR%'
AND effectivedate >= DATE '2016-05-25'
AND pph__c < 15.9
AND recurrency__c > 0
ORDER BY sfid
;


-- 16,9 recurrency check
SELECT sfid, status, contact__c, pph__c, paid__c, effectivedate FROM salesforce.order
WHERE contact__c IN (
'0032000001R20mHAAR',
'0032000001YEylmAAD',
'0032000001YEylmAAD',
'0032000001dOwO4AAK',
'0032000001dOwO4AAK',
'0032000001YloJnAAJ',
'0032000001Tlhm2AAB',
'0032000001WQUlKAAX',
'0032000001RlOlnAAF',
'0032000001KEJumAAH',
'0032000001Xyx3KAAR',
'0032000001Tlhm2AAB',
'0032000001KEJumAAH',
'0032000001TjU7PAAV',
'0032000001ZtF92AAF',
'0032000001YGA8jAAH',
'0032000001ZHin9AAD',
'0032000001YDS2eAAH',
'0032000001WNZOyAAP',
'0032000001TBkyXAAT',
'0032000001cVkISAA0',
'0032000001YFkbZAAT',
'0032000001TjU7PAAV',
'0032000001TjU7PAAV',
'0032000001dqrsGAAQ',
'0032000001V59N6AAJ',
'0032000001YkiZbAAJ',
'0032000001OEbK9AAL',
'0032000001W6ZoZAAV',
'0032000001R20mHAAR',
'0032000001VQrcCAAT',
'0032000001bFPszAAG',
'0032000001V3iZTAAZ',
'0032000001R55B7AAJ',
'0032000001ZIx2gAAD',
'0032000001bjCSoAAM',
'0032000001WwNOpAAN',
'0032000001cykIvAAI',
'0032000001Tkm5YAAR',
'0032000001QbBboAAF',
'0032000001dqrsGAAQ',
'0032000001YloJnAAJ',
'0032000001OEbK9AAL',
'0032000001YDS2eAAH',
'0032000001Xyx3KAAR',
'0032000001Xyx3KAAR',
'0032000001O043QAAR',
'0032000001Yjyg3AAB',
'0032000001XWKElAAP',
'0032000001Tlhm2AAB',
'0032000001RlOlnAAF',
'0032000001RlOlnAAF',
'0032000001dURXOAA4',
'0032000001YnBUoAAN',
'0032000001RixbZAAR',
'0032000001RixbZAAR',
'0032000001Tkm5YAAR',
'0032000001YDS2eAAH',
'0032000001ZtF92AAF',
'0032000001cSvMsAAK',
'0032000001W6ZoZAAV',
'0032000001YldCDAAZ',
'0032000001YldCDAAZ',
'0032000001YGA8jAAH',
'0032000001R55B7AAJ',
'0032000001cykIvAAI',
'0032000001WwNOpAAN',
'0032000001WwNOpAAN',
'0032000001YFkbZAAT',
'0032000001aM9rkAAC',
'0032000001cVkISAA0',
'0032000001bFPszAAG',
'0032000001dURXOAA4',
'0032000001WNZOyAAP',
'0032000001R20mHAAR',
'0032000001R20mHAAR',
'0032000001Yjyg3AAB',
'0032000001dOwO4AAK',
'0032000001ZIx2gAAD',
'0032000001V1b8OAAR',
'0032000001XYw2cAAD',
'0032000001XWKElAAP',
'0032000001L7QD9AAN',
'0032000001YEAX1AAP',
'0032000001V3iZTAAZ',
'0032000001cSvMsAAK',
'0032000001O043QAAR',
'0032000001O043QAAR',
'0032000001YG7MUAA1',
'0032000001YGA8jAAH',
'0032000001aem8eAAA',
'0032000001aem8eAAA',
'0032000001aem8eAAA',
'0032000001TjU7PAAV',
'0032000001dqrsGAAQ',
'0032000001XvZzvAAF',
'0032000001YlABXAA3',
'0032000001Yjyg3AAB',
'0032000001XYw2cAAD',
'0032000001XYw2cAAD',
'0032000001ZtF92AAF',
'0032000001aM9rkAAC',
'0032000001aM9rkAAC',
'0032000001QbBboAAF',
'0032000001QbBboAAF',
'0032000001ZIx2gAAD',
'0032000001ZHin9AAD',
'0032000001V1b8OAAR',
'0032000001YGRjyAAH',
'0032000001TBkyXAAT',
'0032000001YFkbZAAT',
'0032000001WvgAxAAJ',
'0032000001WvgAxAAJ',
'0032000001L7QD9AAN',
'0032000001YldCDAAZ',
'0032000001XWKElAAP',
'0032000001cSvMsAAK',
'0032000001dURXOAA4',
'0032000001WNZOyAAP',
'0032000001XvZzvAAF',
'0032000001XvZzvAAF',
'0032000001YG7MUAA1',
'0032000001WQUlKAAX',
'0032000001Yk1HnAAJ',
'0032000001Yk1HnAAJ',
'0032000001YERpeAAH',
'0032000001YERpeAAH',
'0032000001YlABXAA3',
'0032000001YlABXAA3',
'0032000001bjCSoAAM',
'0032000001bjCSoAAM',
'0032000001TjU7PAAV',
'0032000001VQrcCAAT'
)
AND paid__c IS NULL
--AND status NOT LIKE 'CANCEL%'
--AND status NOT LIKE 'ERROR%'
AND effectivedate >= DATE '2016-05-25'
AND pph__c < 16.9
AND recurrency__c > 0
ORDER BY sfid
;
