
-- 15,9
--UPDATE salesforce.order SET pph__c = 15.9
SELECT sfid, status, contact__c, paid__c, effectivedate FROM salesforce.order
WHERE sfid IN (
'80120000000e2VQAAY',
'80120000000dkHSAAY',
'80120000000dZeGAAU',
'80120000000dFVwAAM',
'80120000000eP3QAAU',
'80120000000dltcAAA',
'80120000000dWvsAAE',
'80120000000dl8gAAA',
'80120000000eMF9AAM',
'80120000000dXiVAAU',
'80120000000e4T2AAI',
'80120000000doDtAAI',
'80120000000dbneAAA',
'80120000000e2LQAAY',
'80120000000dHaPAAU',
'80120000000dlywAAA',
'80120000000ePjvAAE',
'80120000000djfxAAA',
'80120000000dsQNAAY',
'80120000000d7S1AAI',
'80120000000dzrnAAA',
'80120000000dsDdAAI',
'80120000000d9pMAAQ',
'80120000000ePPCAA2',
'80120000000eGvAAAU',
'80120000000dYwtAAE',
'80120000000dgJKAAY',
'80120000000dkxdAAA',
'80120000000tKIlAAM',
'80120000000deXoAAI',
'80120000000eEOsAAM',
'80120000000eBleAAE',
'80120000000dxytAAA',
'80120000000sogLAAQ',
'80120000000tSuYAAU',
'80120000000dm2AAAQ',
'80120000000dqT5AAI',
'80120000000eBZYAA2',
'80120000000dg1aAAA',
'8012000000119wfAAA',
'80120000000dV6KAAU',
'80120000000dwjxAAA',
'80120000000dIBzAAM',
'80120000000tSvqAAE',
'80120000000d8REAAY',
'80120000000dqCTAAY',
'80120000000duzeAAA',
'80120000000e9LKAAY',
'80120000000eB5EAAU',
'80120000000dATRAA2',
'80120000000eKIMAA2',
'80120000000dqJjAAI',
'80120000000ddVmAAI',
'80120000000dp2rAAA',
'80120000000dsdvAAA',
'80120000000dxqkAAA',
'80120000000dmQWAAY',
'80120000000eBcXAAU',
'80120000000deRgAAI',
'80120000000dfNpAAI',
'80120000000e80VAAQ',
'80120000000dQLJAA2',
'80120000000tNq7AAE',
'80120000000dQZBAA2',
'80120000000dTnlAAE',
'80120000000dbkQAAQ',
'80120000000eQAcAAM',
'80120000000dN95AAE',
'80120000000dLnSAAU',
'80120000000dlaQAAQ',
'80120000000dUlCAAU',
'80120000000eMF4AAM',
'80120000000dTgQAAU',
'80120000000dYlLAAU',
'80120000000eBUnAAM',
'80120000000dBTIAA2',
'80120000000dlaVAAQ',
'80120000000tTJTAA2',
'80120000000ddUyAAI',
'80120000000e8BTAAY',
'80120000000e81TAAQ',
'80120000000eGbUAAU',
'80120000000e7jZAAQ',
'80120000000dqO0AAI',
'80120000000dkXaAAI',
'80120000000dpLFAAY',
'80120000000eOjBAAU',
'80120000000eBM0AAM',
'80120000000dqFhAAI',
'80120000000dmeJAAQ',
'80120000000dY2QAAU',
'80120000000do1TAAQ',
'80120000000dVDkAAM',
'80120000000dlLBAAY',
'80120000000eGtJAAU',
'80120000000eQ7sAAE',
'80120000000e2LBAAY',
'80120000000ssIrAAI',
'80120000000e7i2AAA',
'80120000000dXImAAM',
'80120000000tUhAAAU',
'80120000000eOdIAAU',
'80120000000dqCJAAY',
'80120000000dppUAAQ',
'80120000000dpvXAAQ',
'80120000000d9pRAAQ',
'80120000000tBjiAAE',
'80120000000eBGvAAM',
'80120000000dsgpAAA',
'80120000000dp3kAAA',
'80120000000tJU7AAM',
'80120000000eGPnAAM',
'80120000000dQh5AAE',
'80120000000dWt3AAE',
'80120000000dkHXAAY',
'80120000000dBmPAAU',
'80120000000dub3AAA',
'80120000000dqFIAAY',
'80120000000daIuAAI',
'801200000015lKBAAY',
'80120000000dVNkAAM',
'80120000000e7hsAAA',
'80120000000d8CxAAI',
'80120000000dYv6AAE',
'80120000000e1i9AAA',
'80120000000d7PvAAI',
'80120000000dVNuAAM',
'80120000000dbCYAAY',
'80120000000eHAyAAM',
'80120000000eBflAAE',
'80120000000dsFZAAY',
'80120000000e49bAAA',
'80120000000eBI3AAM',
'80120000000d9NXAAY',
'80120000000dLDyAAM',
'80120000000t38eAAA',
'80120000000dz55AAA',
'80120000000djZaAAI',
'80120000000eGWQAA2',
'80120000000eHP0AAM',
'80120000000d7MhAAI',
'80120000000dVNWAA2',
'80120000000tAcbAAE',
'80120000000dm3mAAA',
'80120000000dsguAAA',
'80120000000tRNsAAM',
'80120000000dj6xAAA',
'80120000000djksAAA',
'80120000000dwMZAAY',
'80120000000dsFeAAI',
'80120000000dSQgAAM',
'80120000000dG8ZAAU',
'80120000000dsOgAAI',
'80120000000dRzLAAU',
'80120000000dR3pAAE',
'80120000000dQIUAA2',
'80120000000dkKCAAY',
'80120000000e47aAAA',
'80120000000dDJKAA2',
'80120000000ePFlAAM',
'801200000015kg1AAA',
'80120000000dj5uAAA',
'80120000000e7j0AAA',
'80120000000tQt4AAE',
'80120000000e8MWAAY',
'80120000000dZLYAA2',
'80120000000e7k8AAA',
'80120000000eBEBAA2',
'80120000000e7jUAAQ',
'80120000000dlcvAAA',
'80120000000dXbBAAU',
'80120000000dVxYAAU',
'80120000000tPHdAAM',
'80120000000dsFyAAI',
'80120000000eBVgAAM',
'80120000000eP02AAE',
'80120000000tVkeAAE',
'80120000000tNrjAAE',
'80120000000d7MSAAY',
'80120000000e8X5AAI',
'80120000000dJQPAA2',
'80120000000dXK4AAM',
'80120000000tTLpAAM',
'80120000000dfwaAAA',
'80120000000dp1KAAQ',
'80120000000dlm7AAA',
'80120000000tO6FAAU',
'80120000000dTXxAAM',
'80120000000dlRJAAY',
'80120000000doNKAAY',
'80120000000dhvtAAA',
'80120000000dokEAAQ',
'80120000000tOn9AAE',
'80120000000dIBuAAM',
'80120000000dsQXAAY',
'80120000000dQZGAA2',
'80120000000dhleAAA',
'80120000000tQtYAAU',
'80120000000eMM0AAM',
'80120000000dLZVAA2',
'80120000000e4oPAAQ',
'80120000000tRNxAAM',
'80120000000e4u3AAA',
'80120000000e9FlAAI',
'80120000000eD4XAAU',
'80120000000eQGGAA2',
'80120000000tSMvAAM',
'80120000000dpwfAAA',
'80120000000e4s2AAA',
'80120000000dKNOAA2',
'80120000000tJcuAAE',
'80120000000dlRxAAI',
'80120000000dC2mAAE',
'80120000000e0i8AAA',
'80120000000e2I2AAI',
'80120000000daX6AAI',
'80120000000eMGHAA2',
'80120000000dFbLAAU',
'80120000000dKawAAE',
'80120000000dojBAAQ',
'80120000000tC6wAAE',
'80120000000tRhEAAU',
'80120000000eQ82AAE',
'80120000000eP7wAAE',
'80120000000dnzSAAQ',
'80120000000dZscAAE',
'80120000000duv8AAA',
'80120000000e4svAAA',
'80120000000dirsAAA',
'80120000000eMGRAA2',
'80120000000dkNVAAY',
'80120000000tPkuAAE',
'80120000000e0zsAAA',
'80120000000doGTAAY',
'80120000000dzwxAAA',
'80120000000dojaAAA',
'80120000000tXCtAAM',
'80120000000dzCaAAI',
'80120000000e7iCAAQ',
'80120000000daAMAAY',
'80120000000e2HxAAI',
'80120000000dlPrAAI',
'80120000000e2HsAAI',
'80120000000dwUsAAI',
'80120000000dR9YAAU',
'80120000000dh4uAAA',
'80120000000djIeAAI',
'80120000000dbCEAAY',
'80120000000e4VcAAI',
'80120000000deR2AAI',
'80120000000dOEkAAM',
'80120000000e0DAAAY',
'80120000000eQ9eAAE',
'80120000000ePJOAA2',
'80120000000dEEkAAM',
'80120000000eO1TAAU',
'80120000000dlxPAAQ',
'80120000000dizSAAQ',
'80120000000eGWjAAM',
'80120000000dz2BAAQ',
'80120000000tLMUAA2',
'80120000000dTTRAA2',
'80120000000eKQ1AAM',
'80120000000dejVAAQ',
'80120000000dBsSAAU',
'80120000000dZyuAAE',
'80120000000e7i7AAA',
'80120000000e7kNAAQ',
'80120000000dc1CAAQ',
'80120000000dbPrAAI',
'80120000000dmReAAI',
'80120000000dlWtAAI',
'80120000000djHvAAI',
'80120000000dUihAAE',
'80120000000ds3OAAQ',
'80120000000dqOoAAI',
'80120000000eQO0AAM',
'80120000000dsbQAAQ',
'80120000000dy0LAAQ',
'80120000000d9TzAAI',
'80120000000tPHiAAM',
'80120000000tE6ZAAU',
'80120000000eO1nAAE',
'80120000000e2H4AAI',
'80120000000e2cHAAQ',
'80120000000e0knAAA',
'801200000015k8nAAA',
'80120000000dR15AAE',
'80120000000dSl0AAE',
'80120000000e2N2AAI',
'80120000000tCYCAA2',
'80120000000dz2fAAA',
'80120000000dKNnAAM',
'80120000000drHyAAI',
'80120000000daKlAAI',
'80120000000dTbkAAE',
'80120000000e2IlAAI',
'80120000000dqN2AAI',
'80120000000duYdAAI',
'80120000000tO57AAE',
'80120000000dAYWAA2',
'80120000000e4P0AAI',
'80120000000dlcgAAA',
'80120000000e8IeAAI',
'80120000000tTxJAAU',
'80120000000eGmNAAU',
'80120000000dXZEAA2',
'80120000000eBqPAAU',
'80120000000dxmiAAA',
'80120000000dFoFAAU',
'80120000000tUwKAAU',
'80120000000dkR8AAI',
'80120000000dUj6AAE',
'80120000000dirEAAQ',
'80120000000dhY1AAI',
'80120000000eGwNAAU',
'80120000000tNVxAAM',
'80120000000dj6OAAQ',
'80120000000tJQeAAM',
'80120000000djFVAAY',
'80120000000dLeQAAU',
'80120000000dldPAAQ',
'80120000000dNnPAAU',
'80120000000dnzNAAQ',
'80120000000dmlPAAQ',
'80120000000dgJjAAI',
'80120000000dcsfAAA',
'80120000000dz1wAAA',
'80120000000e7oFAAQ',
'80120000000dy0aAAA',
'80120000000e2KwAAI',
'80120000000eMPJAA2',
'80120000000e81xAAA',
'80120000000djHbAAI',
'80120000000eOy1AAE',
'80120000000diyFAAQ',
'80120000000dluaAAA',
'80120000000drsQAAQ',
'80120000000e8H7AAI',
'80120000000dqCEAAY',
'80120000000tWB6AAM',
'80120000000duaFAAQ',
'80120000000dYbkAAE',
'80120000000dum1AAA',
'80120000000tSRRAA2',
'80120000000dKwJAAU',
'80120000000dqLMAAY',
'80120000000dNLaAAM',
'80120000000diXOAAY',
'80120000000e2LpAAI',
'80120000000doUfAAI',
'80120000000e4UPAAY',
'80120000000dlZ8AAI',
'80120000000eKOoAAM',
'80120000000eKwlAAE',
'80120000000e7iqAAA',
'80120000000doFBAAY',
'80120000000ddRBAAY',
'80120000000dQl2AAE',
'80120000000dDwMAAU',
'80120000000dJKbAAM',
'80120000000tB17AAE',
'80120000000d7gmAAA',
'80120000000dmSIAAY',
'80120000000eQ9UAAU',
'80120000000dfOTAAY',
'80120000000dqMxAAI',
'80120000000dbCJAAY',
'80120000000dXbFAAU',
'80120000000dgR9AAI',
'80120000000ddXTAAY',
'80120000000ddLDAAY',
'80120000000eCI9AAM',
'80120000000eQ8RAAU',
'80120000000dTeAAAU',
'80120000000eBP4AAM',
'80120000000dmnfAAA',
'80120000000dzqQAAQ',
'80120000000e4BnAAI',
'80120000000dQvgAAE',
'80120000000e2GfAAI',
'80120000000e2PIAAY',
'80120000000tKqTAAU',
'80120000000eOdNAAU',
'80120000000dirnAAA',
'80120000000tT1UAAU',
'80120000000e4RQAAY',
'80120000000dlitAAA',
'80120000000dz71AAA',
'80120000000dRzQAAU',
'80120000000dlbxAAA',
'80120000000dNb4AAE',
'80120000000dIHJAA2',
'80120000000dsMpAAI',
'80120000000dsUFAAY',
'80120000000dRtSAAU',
'80120000000e8NAAAY',
'80120000000dVxTAAU',
'80120000000dg0mAAA',
'80120000000dqFmAAI',
'80120000000e47kAAA',
'80120000000dkpZAAQ',
'80120000000dmSmAAI',
'80120000000eOlWAAU',
'80120000000eC4WAAU',
'80120000000e8Q9AAI',
'80120000000dsGXAAY',
'80120000000eBFiAAM',
'80120000000t5R4AAI',
'80120000000t7GNAAY',
'80120000000dV6UAAU',
'80120000000dlw7AAA',
'80120000000ddFoAAI',
'80120000000eQBfAAM',
'80120000000eKJAAA2',
'80120000000e82WAAQ',
'80120000000dsLDAAY',
'80120000000ddLIAAY',
'80120000000dV7DAAU',
'80120000000dLlWAAU',
'80120000000dlRnAAI',
'80120000000e9hGAAQ',
'80120000000djg2AAA',
'80120000000dgCsAAI',
'80120000000e7mJAAQ',
'80120000000dC8uAAE',
'80120000000dbCxAAI',
'80120000000tC6rAAE',
'80120000000sr2iAAA',
'80120000000daLyAAI',
'80120000000ddAZAAY',
'80120000000drqPAAQ',
'80120000000dlPhAAI',
'80120000000dh5OAAQ',
'80120000000doFfAAI',
'80120000000ePByAAM',
'80120000000dUunAAE',
'80120000000e4BmAAI',
'80120000000tOjvAAE',
'80120000000dXX3AAM',
'80120000000e7krAAA',
'80120000000eBFnAAM',
'80120000000drqKAAQ',
'80120000000dsX4AAI',
'80120000000dV78AAE',
'80120000000dfRXAAY',
'80120000000dqRsAAI',
'80120000000dkK7AAI',
'80120000000dg0hAAA',
'80120000000eGiuAAE',
'80120000000eQKwAAM',
'80120000000dYD9AAM',
'80120000000dnzXAAQ',
'80120000000dNLfAAM',
'80120000000eP3VAAU',
'80120000000eH1rAAE',
'80120000000deRbAAI',
'80120000000dKKOAA2',
'80120000000dmWAAAY',
'80120000000dm5nAAA',
'80120000000dbdAAAQ',
'80120000000e7khAAA',
'80120000000dV73AAE',
'80120000000doGJAAY',
'80120000000daeHAAQ',
'80120000000e2IbAAI',
'80120000000dJ6WAAU',
'80120000000ddG8AAI',
'80120000000dwk2AAA',
'80120000000dmPJAAY',
'80120000000eOcFAAU',
'80120000000dpr6AAA',
'80120000000tRrYAAU',
'80120000000dbKNAAY',
'80120000000e7oKAAQ',
'80120000000eAzQAAU',
'80120000000e2GpAAI',
'80120000000dhU4AAI',
'80120000000dKnMAAU',
'80120000000dbQ6AAI',
'801200000015k2BAAQ',
'80120000000dsFoAAI',
'80120000000dc2ZAAQ',
'80120000000dSRjAAM',
'80120000000dCkoAAE',
'80120000000dckMAAQ',
'80120000000dU8yAAE',
'80120000000eQB6AAM',
'80120000000dusnAAA',
'80120000000dOAdAAM',
'80120000000tSKkAAM',
'80120000000dojGAAQ',
'80120000000dSUJAA2',
'80120000000eQ9jAAE',
'80120000000dwBMAAY',
'80120000000eOm0AAE',
'80120000000drx1AAA',
'80120000000dsEWAAY',
'80120000000tT6KAAU',
'80120000000eQPcAAM',
'80120000000tKPDAA2',
'80120000000dlRiAAI',
'80120000000ePvSAAU',
'80120000000dD3lAAE',
'80120000000dBsNAAU',
'80120000000ddFUAAY',
'80120000000dXZJAA2',
'80120000000duSkAAI',
'80120000000e1e2AAA',
'80120000000dHwkAAE',
'80120000000dKzIAAU',
'80120000000dDUIAA2',
'80120000000djm0AAA',
'80120000000dp4TAAQ',
'80120000000dckWAAQ',
'80120000000dzytAAA',
'80120000000dp4dAAA',
'80120000000dllsAAA',
'80120000000dsigAAA',
'80120000000dLlHAAU',
'80120000000dlvnAAA',
'80120000000eMG7AAM',
'80120000000d8erAAA',
'80120000000doEcAAI',
'80120000000dH6ZAAU',
'80120000000e4dbAAA',
'80120000000eBx6AAE',
'80120000000e2PDAAY',
'80120000000dTUKAA2',
'80120000000dlQfAAI',
'80120000000dwI3AAI',
'80120000000dkniAAA',
'80120000000do30AAA',
'80120000000eMEpAAM',
'80120000000dnSTAAY',
'80120000000tVkjAAE',
'80120000000dlgTAAQ',
'80120000000dk7IAAQ',
'80120000000dVgXAAU',
'80120000000tTv3AAE',
'80120000000t1ZJAAY',
'80120000000tE6tAAE',
'80120000000e4Z0AAI',
'80120000000tXMFAA2',
'80120000000t2ZKAAY',
'80120000000e3lFAAQ',
'80120000000e7kIAAQ',
'80120000000dzucAAA',
'80120000000diyjAAA',
'80120000000dZpOAAU',
'80120000000deRvAAI',
'80120000000dxqQAAQ',
'80120000000eMK9AAM',
'80120000000tOk0AAE',
'80120000000tW2nAAE',
'80120000000dLggAAE',
'80120000000dzI4AAI',
'80120000000dma7AAA',
'80120000000drsVAAQ',
'80120000000tRrnAAE',
'80120000000dSIXAA2',
'80120000000dqCiAAI',
'80120000000e2cCAAQ',
'80120000000dVZWAA2',
'80120000000dlsPAAQ',
'801200000015l9NAAQ',
'80120000000e47zAAA',
'80120000000t8b2AAA',
'80120000000dckRAAQ',
'80120000000dlG1AAI',
'80120000000dqMOAAY',
'80120000000dmikAAA',
'80120000000dVDQAA2',
'80120000000dhUEAAY',
'80120000000diMaAAI',
'80120000000eBMPAA2',
'80120000000deVJAAY',
'80120000000dlROAAY',
'80120000000eOtzAAE',
'80120000000dQcFAAU',
'80120000000eBUJAA2',
'80120000000eGsfAAE',
'80120000000eKJ5AAM',
'80120000000dcr3AAA',
'80120000000dlhHAAQ',
'80120000000dSGlAAM',
'80120000000drx6AAA',
'80120000000daPCAAY',
'80120000000eBUsAAM',
'80120000000dsHLAAY',
'80120000000dE2jAAE',
'80120000000dVbIAAU',
'80120000000eAzLAAU',
'80120000000dAahAAE',
'80120000000eOVsAAM',
'80120000000eQGQAA2',
'80120000000suXZAAY',
'80120000000dL0fAAE',
'80120000000dJFRAA2',
'80120000000e2H9AAI',
'80120000000djm5AAA',
'80120000000dllnAAA',
'80120000000eQBQAA2',
'80120000000deXyAAI',
'80120000000dkO9AAI',
'80120000000doF1AAI',
'80120000000dTDTAA2',
'80120000000eGhDAAU',
'80120000000dzZyAAI',
'80120000000eB1vAAE',
'801200000015lJNAAY',
'80120000000e49RAAQ',
'80120000000dIHOAA2',
'80120000000daeWAAQ',
'80120000000dQYXAA2',
'80120000000dcvAAAQ',
'80120000000dQWRAA2',
'80120000000ePmVAAU',
'80120000000d9NNAAY',
'80120000000dAO7AAM',
'80120000000djE8AAI',
'80120000000dWFmAAM',
'80120000000dam1AAA',
'80120000000dQItAAM',
'80120000000dkIkAAI',
'80120000000eErlAAE',
'80120000000e2GuAAI',
'80120000000e2y3AAA',
'80120000000d85rAAA',
'80120000000djcFAAQ',
'80120000000dffAAAQ',
'80120000000dXbUAAU',
'80120000000dlxjAAA',
'80120000000e7lQAAQ',
'80120000000e8FLAAY',
'80120000000dqQGAAY',
'80120000000dzuSAAQ',
'80120000000dlr2AAA',
'80120000000djDZAAY',
'80120000000eB6MAAU',
'80120000000dZqRAAU',
'80120000000dkndAAA',
'80120000000dxguAAA',
'80120000000tIYmAAM',
'80120000000dlPNAAY',
'80120000000e89SAAQ',
'80120000000da0RAAQ',
'80120000000dEyiAAE',
'80120000000eMPEAA2',
'80120000000dxlkAAA',
'80120000000dmPdAAI',
'80120000000doj1AAA',
'80120000000dqKSAAY',
'80120000000dhdaAAA',
'80120000000dV7IAAU',
'80120000000dgL1AAI',
'80120000000dmYkAAI',
'80120000000eGnkAAE',
'80120000000e4bkAAA',
'80120000000dUl7AAE',
'80120000000decjAAA',
'80120000000dxEbAAI',
'80120000000dP3xAAE',
'80120000000eP8LAAU',
'80120000000dqRdAAI',
'80120000000dD2xAAE',
'80120000000e4lkAAA',
'80120000000eP0vAAE',
'80120000000tVwLAAU',
'80120000000dDomAAE',
'80120000000dlxyAAA',
'80120000000e4ojAAA',
'80120000000tQwXAAU',
'80120000000tQyJAAU',
'80120000000eOEcAAM',
'80120000000deUaAAI',
'80120000000dQGsAAM',
'80120000000tRXxAAM',
'80120000000e2tIAAQ',
'80120000000dG0VAAU',
'80120000000e88tAAA',
'80120000000dZsXAAU',
'80120000000demFAAQ',
'80120000000dZpEAAU',
'80120000000eGzvAAE',
'80120000000tPKDAA2',
'80120000000dTUAAA2',
'80120000000e7uhAAA',
'80120000000deweAAA',
'80120000000dkVtAAI',
'80120000000eGh8AAE',
'80120000000e8JcAAI',
'80120000000dsOqAAI',
'80120000000dH28AAE',
'80120000000tPkBAAU',
'80120000000eCAUAA2',
'80120000000dzs2AAA',
'80120000000dlZXAAY',
'80120000000dTg1AAE',
'80120000000dEZnAAM',
'80120000000dOcSAAU',
'80120000000dko7AAA',
'80120000000dVO4AAM',
'80120000000dhYVAAY',
'80120000000dVgSAAU',
'80120000000dhduAAA',
'80120000000dlS7AAI',
'80120000000tQbtAAE',
'80120000000tMD9AAM',
'801200000015jzvAAA',
'80120000000dlS2AAI',
'80120000000dbCTAAY',
'80120000000daDzAAI',
'80120000000doAQAAY',
'80120000000eBeTAAU',
'80120000000tS3PAAU',
'80120000000djwKAAQ',
'80120000000dVjgAAE',
'80120000000dQGYAA2',
'80120000000dcCeAAI',
'80120000000dolHAAQ',
'80120000000doVnAAI',
'80120000000tPEoAAM',
'80120000000dToZAAU',
'80120000000dc1lAAA',
'80120000000dBTNAA2',
'80120000000dVy7AAE',
'80120000000dDqTAAU',
'80120000000depJAAQ',
'80120000000dlrCAAQ',
'80120000000dR1ZAAU',
'80120000000dzPPAAY',
'80120000000dsarAAA',
'80120000000djOIAAY',
'80120000000eI4DAAU',
'80120000000dTDYAA2',
'80120000000e4CBAAY',
'80120000000dYoZAAU',
'80120000000dYoeAAE',
'80120000000dXaRAAU',
'80120000000daChAAI',
'80120000000tCcTAAU',
'80120000000dRVKAA2',
'80120000000eMKJAA2',
'80120000000dlerAAA',
'80120000000dsRfAAI',
'80120000000dTiqAAE',
'80120000000dcszAAA',
'80120000000doypAAA',
'80120000000e4qLAAQ',
'80120000000dAY2AAM',
'80120000000eQ8HAAU',
'80120000000e2ioAAA',
'80120000000eBcrAAE',
'80120000000dfSpAAI',
'80120000000dhUxAAI',
'80120000000dTm9AAE',
'80120000000eKHEAA2',
'80120000000tWvEAAU',
'80120000000dSPnAAM',
'80120000000dSXcAAM',
'80120000000dzLwAAI',
'80120000000dckgAAA',
'80120000000e4uNAAQ',
'80120000000eP6PAAU',
'80120000000dsCfAAI',
'80120000000dm1CAAQ',
'80120000000eOdXAAU',
'80120000000dfUbAAI',
'80120000000e4oZAAQ',
'80120000000e7laAAA',
'80120000000d8EZAAY',
'80120000000e80QAAQ',
'80120000000dXa2AAE',
'80120000000dZqbAAE',
'80120000000dh5xAAA',
'80120000000ds1SAAQ',
'80120000000e7lkAAA',
'80120000000eMM5AAM',
'80120000000tLbtAAE',
'80120000000tSIeAAM',
'80120000000dUoGAAU',
'80120000000dkgrAAA',
'80120000000e96yAAA',
'80120000000tLQMAA2',
'80120000000e7kcAAA',
'80120000000dppPAAQ',
'80120000000dR5MAAU',
'80120000000tEEiAAM',
'80120000000dThnAAE',
'80120000000e8UzAAI',
'80120000000dQyfAAE',
'80120000000tW7OAAU',
'80120000000da5gAAA',
'80120000000dOEpAAM',
'80120000000dqNvAAI',
'80120000000dhUnAAI',
'80120000000tHGhAAM',
'80120000000dPEvAAM',
'80120000000sywUAAQ',
'80120000000eGiaAAE',
'80120000000dvnUAAQ',
'80120000000eGoJAAU',
'80120000000eP3aAAE',
'80120000000dht9AAA',
'80120000000dVlXAAU',
'80120000000diDTAAY',
'80120000000dW16AAE',
'80120000000dbSHAAY',
'80120000000dpmuAAA',
'80120000000e2I7AAI',
'80120000000e7oeAAA',
'80120000000dqRxAAI',
'80120000000eQBpAAM',
'80120000000dp4EAAQ',
'80120000000doeVAAQ',
'80120000000dhxpAAA',
'80120000000ePoWAAU',
'80120000000eQBGAA2',
'80120000000dz2QAAQ',
'80120000000dmPiAAI',
'80120000000dsFUAAY',
'80120000000doAuAAI',
'80120000000dZrUAAU',
'80120000000dWxjAAE',
'80120000000deR7AAI',
'80120000000dKiRAAU',
'80120000000dVVoAAM',
'80120000000dsVIAAY',
'80120000000dUZfAAM',
'80120000000dqK8AAI',
'80120000000dVDGAA2',
'80120000000dkK2AAI',
'80120000000dKwEAAU',
'80120000000eMhmAAE',
'80120000000dgtcAAA',
'8012000000113jOAAQ',
'80120000000dbQ1AAI',
'80120000000dqM9AAI',
'80120000000dVZbAAM',
'80120000000e1huAAA',
'80120000000dqCnAAI',
'80120000000dXYBAA2',
'80120000000eGnGAAU',
'80120000000tPbOAAU',
'80120000000e4awAAA',
'80120000000dVNfAAM',
'80120000000eMPOAA2',
'80120000000dqPIAAY',
'80120000000e8FkAAI',
'80120000000dg1fAAA',
'80120000000tTuFAAU',
'80120000000eOjuAAE',
'80120000000dU8eAAE',
'80120000000dj4mAAA',
'80120000000eOdSAAU',
'80120000000e4oKAAQ',
'80120000000t7VmAAI',
'80120000000tB9QAAU',
'80120000000dz21AAA',
'80120000000eOepAAE',
'80120000000dkh1AAA',
'80120000000dWuBAAU',
'80120000000dpwkAAA',
'80120000000dlf6AAA',
'80120000000eBL2AAM',
'80120000000dkuoAAA',
'80120000000dgKwAAI',
'80120000000smf6AAA',
'80120000000dWHsAAM',
'80120000000dltrAAA',
'80120000000eGfHAAU',
'80120000000dTUPAA2',
'80120000000d7mGAAQ',
'80120000000eQFwAAM',
'80120000000eGxGAAU',
'80120000000dkRSAAY',
'80120000000dsAAAAY',
'80120000000dVNaAAM',
'80120000000t9vhAAA',
'80120000000e2sUAAQ',
'80120000000dl4ZAAQ',
'80120000000dcl5AAA',
'80120000000dUdXAAU',
'80120000000dWCsAAM',
'80120000000dl3vAAA',
'80120000000eNXYAA2',
'80120000000ePRDAA2',
'80120000000dsXxAAI',
'80120000000dgsAAAQ',
'80120000000eIDeAAM',
'80120000000dlhvAAA',
'80120000000eOdmAAE',
'80120000000e4xWAAQ',
'80120000000dGxiAAE',
'80120000000eKNqAAM',
'80120000000e8BxAAI',
'80120000000dmQRAAY',
'80120000000eCTqAAM',
'80120000000dKoAAAU',
'80120000000dNW9AAM',
'80120000000dLd8AAE',
'80120000000e2djAAA',
'80120000000e7joAAA',
'80120000000e7xRAAQ',
'80120000000dqTPAAY',
'80120000000dR5HAAU',
'80120000000dZNyAAM',
'80120000000dsGNAAY',
'80120000000daD1AAI',
'80120000000dmPEAAY',
'80120000000dXHKAA2',
'80120000000doDyAAI',
'80120000000dNnAAAU',
'80120000000dqC4AAI',
'80120000000dlj8AAA',
'80120000000dsPeAAI',
'80120000000dfM8AAI',
'80120000000e3Q7AAI',
'80120000000e4nWAAQ',
'80120000000eOdhAAE',
'80120000000dgNgAAI',
'80120000000tO2rAAE',
'80120000000e1HwAAI',
'80120000000dEEuAAM',
'80120000000dPF0AAM',
'80120000000e47pAAA',
'80120000000dqfkAAA',
'80120000000dqOeAAI',
'80120000000dUEXAA2',
'80120000000tTAqAAM',
'80120000000dX5OAAU',
'80120000000dlSlAAI',
'80120000000dqRTAAY',
'80120000000eOlRAAU',
'80120000000dbNvAAI',
'80120000000tSyGAAU',
'80120000000e4guAAA',
'80120000000e7tPAAQ',
'80120000000dX5TAAU',
'80120000000dO2FAAU',
'80120000000e4SxAAI',
'80120000000djdSAAQ',
'80120000000e7jyAAA',
'80120000000dSCFAA2',
'80120000000dsPUAAY',
'80120000000e4cYAAQ',
'80120000000eBWZAA2',
'80120000000dzU0AAI',
'80120000000dlYUAAY',
'80120000000do9wAAA',
'80120000000eH00AAE',
'80120000000doAkAAI',
'80120000000tNm0AAE',
'80120000000e4Z5AAI',
'80120000000e8NoAAI',
'80120000000eAEjAAM',
'80120000000eGcXAAU',
'80120000000eB1qAAE',
'80120000000dEKdAAM',
'80120000000dBAVAA2',
'80120000000dw5iAAA',
'80120000000dYlQAAU',
'80120000000dz2GAAQ',
'80120000000eGwSAAU',
'80120000000dalDAAQ',
'80120000000dlaGAAQ',
'80120000000diamAAA',
'80120000000dWLuAAM',
'80120000000dm1HAAQ',
'80120000000eBFdAAM',
'80120000000e2ewAAA',
'80120000000eGgFAAU',
'80120000000dLkEAAU',
'80120000000eGVqAAM',
'80120000000doxcAAA',
'80120000000e872AAA',
'80120000000dhbtAAA',
'80120000000dbREAAY',
'80120000000e4YCAAY',
'80120000000dQU1AAM',
'80120000000dzVXAAY',
'80120000000dY2LAAU',
'80120000000e2MxAAI',
'80120000000df07AAA',
'80120000000tMmsAAE',
'80120000000dZtQAAU',
'80120000000dhINAAY',
'80120000000eCTlAAM',
'801200000015k2kAAA',
'80120000000e2LaAAI',
'80120000000e7kXAAQ',
'80120000000dVD1AAM',
'80120000000daIpAAI',
'80120000000da2mAAA',
'80120000000dbLzAAI',
'80120000000ePEJAA2',
'80120000000dsA0AAI',
'80120000000eOcZAAU',
'80120000000ePEYAA2',
'80120000000tMZZAA2',
'80120000000dzH6AAI',
'80120000000dkqmAAA',
'80120000000tHrTAAU',
'80120000000decyAAA',
'80120000000dQoBAAU',
'80120000000diDOAAY',
'80120000000e4DiAAI',
'80120000000dzAeAAI',
'80120000000e89XAAQ',
'80120000000dzH1AAI',
'80120000000dmlAAAQ',
'80120000000dckqAAA',
'80120000000dQceAAE',
'80120000000dG9mAAE',
'80120000000dVjCAAU',
'80120000000tE6jAAE',
'80120000000dG9rAAE',
'80120000000djdXAAQ',
'80120000000eGZJAA2',
'801200000015k0jAAA',
'80120000000tPEtAAM',
'80120000000do4NAAQ',
'80120000000djFaAAI',
'80120000000dzHzAAI',
'80120000000d8gYAAQ',
'80120000000dljSAAQ',
'80120000000djZfAAI',
'80120000000da1oAAA',
'80120000000dhdpAAA',
'80120000000dVVFAA2',
'80120000000dsH6AAI',
'80120000000tBGMAA2',
'80120000000dNNMAA2',
'80120000000da6eAAA',
'80120000000ePR8AAM',
'80120000000daARAAY',
'80120000000e1foAAA',
'801200000015l9IAAQ',
'80120000000eGulAAE',
'80120000000dNvOAAU',
'80120000000e4l6AAA',
'80120000000e4rOAAQ',
'80120000000dUoBAAU',
'80120000000e7lVAAQ',
'80120000000dfQPAAY',
'80120000000dTyAAAU',
'80120000000tE2wAAE',
'80120000000dgJFAAY',
'80120000000e4TWAAY',
'80120000000eOm5AAE',
'80120000000slXaAAI',
'80120000000dj19AAA',
'80120000000dVJ4AAM',
'80120000000eOdcAAE',
'80120000000d8MEAAY',
'80120000000dqJoAAI',
'80120000000eQPXAA2',
'80120000000tMCBAA2',
'80120000000dsDEAAY',
'80120000000dnzcAAA',
'80120000000dkIpAAI',
'80120000000dhISAAY',
'80120000000dZzEAAU',
'80120000000dljxAAA',
'80120000000eGVvAAM',
'80120000000e8YSAAY',
'80120000000dsGSAAY',
'80120000000dlgdAAA',
'80120000000tKqYAAU',
'80120000000e47fAAA',
'80120000000dsLXAAY',
'80120000000TJUqAAO',
'80120000000eOjzAAE',
'80120000000tSC7AAM',
'80120000000dl40AAA',
'80120000000dVo7AAE',
'80120000000dQZLAA2',
'80120000000e2GzAAI',
'80120000000dq0SAAQ',
'80120000000dusxAAA',
'80120000000dWhHAAU',
'80120000000dbMxAAI',
'80120000000dgJoAAI',
'80120000000eQ9tAAE',
'80120000000dkTEAAY',
'80120000000eBJ6AAM',
'80120000000dm3DAAQ',
'80120000000e4fDAAQ',
'80120000000dXVqAAM',
'80120000000tOLPAA2',
'80120000000dlmhAAA',
'80120000000dN1QAAU',
'80120000000tGdBAAU',
'80120000000dR0RAAU',
'80120000000e801AAA',
'80120000000d91MAAQ',
'80120000000tKrqAAE',
'80120000000dRNzAAM',
'80120000000slzAAAQ',
'80120000000dMxEAAU',
'80120000000eBZ4AAM',
'80120000000dsYgAAI',
'80120000000eMlKAAU',
'80120000000dTdRAAU',
'80120000000e80aAAA',
'80120000000tW4oAAE',
'80120000000eKQkAAM',
'80120000000dsGIAAY',
'80120000000dkLAAAY',
'80120000000dmbKAAQ',
'80120000000dcnzAAA',
'80120000000e9LPAAY',
'80120000000dJ62AAE',
'801200000011AcHAAU',
'80120000000e41mAAA',
'80120000000doDZAAY',
'80120000000dbH4AAI',
'80120000000tWBBAA2',
'80120000000e4zDAAQ',
'80120000000dmSNAAY',
'80120000000daXBAAY',
'80120000000dt5kAAA',
'80120000000d8HYAAY',
'80120000000dpmpAAA',
'80120000000dwSNAAY',
'80120000000e4hTAAQ',
'80120000000dm39AAA',
'80120000000dDb4AAE',
'80120000000eMP9AAM',
'80120000000dkWIAAY',
'80120000000dXWjAAM',
'80120000000e7mEAAQ',
'80120000000dj2CAAQ',
'80120000000e4ciAAA',
'80120000000e8BEAAY',
'80120000000detVAAQ',
'80120000000d8RJAAY',
'80120000000tBYVAA2',
'80120000000eB6WAAU',
'80120000000eQO5AAM',
'80120000000dsCzAAI',
'80120000000eGUYAA2',
'80120000000dep4AAA',
'80120000000ducQAAQ',
'80120000000tSIZAA2',
'80120000000dM99AAE',
'80120000000dEYGAA2',
'80120000000eGdaAAE',
'80120000000tO5bAAE',
'80120000000dJN1AAM',
'80120000000eP5vAAE',
'80120000000eQAhAAM',
'80120000000dod8AAA',
'80120000000doBdAAI',
'80120000000eOz4AAE',
'80120000000dFsHAAU',
'80120000000dzRBAAY',
'80120000000dMwGAAU',
'80120000000dhZnAAI',
'80120000000dlqxAAA',
'80120000000dckbAAA',
'80120000000eGdQAAU',
'80120000000e5HlAAI',
'80120000000e8ZaAAI',
'80120000000e47uAAA',
'80120000000e9FgAAI',
'80120000000dbD7AAI',
'80120000000doFGAAY',
'80120000000duZvAAI',
'80120000000dkfoAAA',
'80120000000dP50AAE',
'80120000000dL6JAAU',
'80120000000dmZnAAI',
'80120000000eBiBAAU',
'80120000000dm3hAAA',
'80120000000dVXpAAM',
'80120000000eGnfAAE',
'80120000000dNtmAAE',
'80120000000eMj9AAE',
'80120000000dY47AAE',
'80120000000dmifAAA',
'80120000000tSKpAAM',
'80120000000dqKrAAI',
'80120000000tM8xAAE',
'80120000000dDOtAAM',
'80120000000dlwvAAA',
'80120000000e8VxAAI',
'80120000000tP3vAAE',
'80120000000dmYzAAI',
'80120000000tPZ8AAM',
'80120000000t4yMAAQ',
'80120000000dbGzAAI',
'80120000000eOo1AAE',
'80120000000dZusAAE',
'80120000000eB50AAE',
'80120000000dWFwAAM',
'80120000000eD4cAAE',
'80120000000eJxOAAU',
'80120000000eOcKAAU',
'80120000000dR49AAE',
'80120000000dw67AAA',
'80120000000dlZwAAI',
'80120000000da2rAAA',
'80120000000eOwZAAU',
'80120000000eGi1AAE',
'80120000000d9NIAAY',
'80120000000dZr6AAE',
'80120000000dbJtAAI',
'80120000000d8bEAAQ',
'80120000000eOjGAAU',
'80120000000dwTQAAY',
'80120000000tMAAAA2',
'80120000000dlauAAA',
'80120000000d8EUAAY',
'80120000000e4qBAAQ',
'80120000000duTxAAI',
'80120000000tPukAAE',
'80120000000dI1zAAE',
'80120000000tVobAAE',
'80120000000e85QAAQ',
'80120000000e8IjAAI',
'80120000000e7kwAAA',
'80120000000dcQ7AAI',
'80120000000dsCQAAY',
'80120000000dRD6AAM',
'80120000000dqLfAAI',
'80120000000dXbeAAE',
'80120000000tRjAAAU',
'80120000000doSZAAY',
'80120000000dMbwAAE',
'80120000000dqDWAAY',
'80120000000dcklAAA',
'80120000000dbc2AAA',
'80120000000dKSxAAM',
'80120000000eB7yAAE',
'80120000000dEZYAA2',
'80120000000eGWoAAM',
'80120000000dmb0AAA',
'80120000000dlqsAAA',
'801200000015lPpAAI',
'80120000000e4DYAAY',
'80120000000e8OXAAY',
'80120000000dSkvAAE',
'80120000000dp4iAAA',
'80120000000eKKhAAM',
'80120000000dgf6AAA',
'80120000000dqL1AAI',
'80120000000dA3iAAE',
'80120000000eGrcAAE',
'80120000000e4ZAAAY',
'80120000000dfVoAAI',
'80120000000t6lUAAQ',
'80120000000dhTGAAY',
'80120000000tO4OAAU',
'80120000000ds26AAA',
'80120000000eKPrAAM',
'80120000000tPkGAAU',
'80120000000dYD4AAM',
'80120000000e4qpAAA',
'80120000000djkxAAA',
'80120000000dsQcAAI',
'80120000000dMbrAAE',
'80120000000tVjRAAU',
'80120000000dsQrAAI',
'80120000000dmbtAAA',
'80120000000dalIAAQ',
'80120000000dfwfAAA',
'80120000000eGPdAAM',
'80120000000tEx9AAE',
'80120000000dlVHAAY',
'80120000000eBbPAAU',
'801200000015k26AAA',
'80120000000da8BAAQ',
'80120000000dqNRAAY',
'80120000000daEdAAI',
'80120000000dleDAAQ',
'80120000000eB7tAAE',
'80120000000tTygAAE',
'80120000000eLaMAAU',
'80120000000e2HEAAY',
'80120000000dgQ6AAI',
'80120000000dheTAAQ',
'80120000000tM8TAAU',
'80120000000tDSKAA2',
'80120000000dxrTAAQ',
'80120000000deeuAAA',
'80120000000dqFXAAY',
'80120000000dX2tAAE',
'80120000000e2GaAAI',
'80120000000dlhgAAA',
'80120000000da0qAAA',
'80120000000eOd8AAE',
'80120000000dbhHAAQ',
'80120000000eKH9AAM',
'80120000000dwn6AAA',
'80120000000eBO1AAM',
'80120000000tCWzAAM',
'80120000000dzzSAAQ',
'80120000000eBEGAA2',
'80120000000dolCAAQ',
'80120000000eBzbAAE',
'80120000000dlRYAAY',
'80120000000dW0mAAE',
'80120000000eBZnAAM',
'80120000000dQqbAAE',
'80120000000dZ6JAAU',
'80120000000eOefAAE',
'80120000000dTY7AAM',
'80120000000dclAAAQ',
'80120000000dQ5LAAU',
'80120000000eQFrAAM',
'80120000000dj6TAAQ',
'80120000000e4u8AAA',
'80120000000dbUcAAI',
'80120000000eBMFAA2',
'80120000000tSq7AAE',
'80120000000e2LzAAI',
'80120000000e82CAAQ',
'80120000000eKJjAAM',
'80120000000dlzRAAQ',
'80120000000dgthAAA',
'80120000000eQBLAA2',
'80120000000dZNtAAM',
'80120000000dN6LAAU',
'80120000000dkg8AAA',
'80120000000dmccAAA',
'80120000000eGnaAAE',
'80120000000duSpAAI',
'80120000000eMlPAAU',
'80120000000dTgzAAE',
'80120000000dwn1AAA',
'80120000000dUdSAAU',
'80120000000dt5fAAA',
'80120000000dsU5AAI',
'80120000000dOWPAA2',
'80120000000dpNpAAI',
'80120000000ddVhAAI',
'80120000000dDPIAA2',
'80120000000dbeIAAQ',
'80120000000dGB9AAM',
'80120000000eMGCAA2',
'80120000000eKOPAA2',
'80120000000tV9nAAE',
'80120000000dqQzAAI',
'80120000000dZWWAA2',
'80120000000dQOrAAM',
'80120000000tDZLAA2',
'80120000000tPHnAAM',
'80120000000dpLAAAY'
)
-- AND paid__c IS NOT NULL
-- AND status LIKE 'CANCEL%'
-- AND status LIKE 'ERROR%'
-- AND effectivedate < DATE '2016-06-22'
-- AND pph__c >= 15.9
-- AND recurrency__c = 0
;



-- 15,9 recurrency check
SELECT sfid, status, contact__c, pph__c, paid__c, effectivedate FROM salesforce.order
WHERE contact__c IN (
'0032000001H6iI8AAJ',
'0032000001HjEuxAAF',
'0032000001HjEweAAF',
'0032000001HjExdAAF',
'0032000001HjExkAAF',
'0032000001HjEz9AAF',
'0032000001HjF00AAF',
'0032000001HjF20AAF',
'0032000001HjF31AAF',
'0032000001HjF48AAF',
'0032000001HjF4cAAF',
'0032000001HjFDYAA3',
'0032000001HjFFiAAN',
'0032000001HjFGMAA3',
'0032000001HjFIsAAN',
'0032000001HjFKHAA3',
'0032000001HjFn4AAF',
'0032000001Hja3QAAR',
'0032000001IC4C2AAL',
'0032000001IDpsVAAT',
'0032000001ItZrQAAV',
'0032000001JEak8AAD',
'0032000001JX1f0AAD',
'0032000001JrpKYAAZ',
'0032000001JtsXfAAJ',
'0032000001JuIuMAAV',
'0032000001KEuJPAA1',
'0032000001KnvFlAAJ',
'0032000001KoNBnAAN',
'0032000001L8t7qAAB',
'0032000001LAA9eAAH',
'0032000001LBBwYAAX',
'0032000001LBnbsAAD',
'0032000001LBo1qAAD',
'0032000001LtaKEAAZ',
'0032000001MCWy9AAH',
'0032000001MUx1bAAD',
'0032000001MVtp4AAD',
'0032000001MWfHYAA1',
'0032000001MX0i6AAD',
'0032000001N1a7PAAR',
'0032000001NQSDnAAP',
'0032000001NQVWVAA5',
'0032000001Nn36AAAR',
'0032000001NnFaKAAV',
'0032000001NzBBzAAN',
'0032000001ODshyAAD',
'0032000001OENrvAAH',
'0032000001OcZN8AAN',
'0032000001OcdgEAAR',
'0032000001OdeBXAAZ',
'0032000001OdsQ6AAJ',
'0032000001PUg6GAAT',
'0032000001Pk7D3AAJ',
'0032000001Pkja5AAB',
'0032000001Pm48vAAB',
'0032000001PmPzmAAF',
'0032000001Pn3YrAAJ',
'0032000001PnA5oAAF',
'0032000001QYmsIAAT',
'0032000001Qa19rAAB',
'0032000001Qa20MAAR',
'0032000001QaDm7AAF',
'0032000001QaSm7AAF',
'0032000001QahPnAAJ',
'0032000001QbfFPAAZ',
'0032000001QcKVMAA3',
'0032000001R20zQAAR',
'0032000001R34V9AAJ',
'0032000001R42MBAAZ',
'0032000001R4vmeAAB',
'0032000001R5NU0AAN',
'0032000001RhUOjAAN',
'0032000001RhoJ6AAJ',
'0032000001RiYOXAA3',
'0032000001RjECzAAN',
'0032000001RjZA3AAN',
'0032000001RjgFVAAZ',
'0032000001RjjRoAAJ',
'0032000001RlSitAAF',
'0032000001SNV62AAH',
'0032000001SNValAAH',
'0032000001SNy38AAD',
'0032000001SOoIZAA1',
'0032000001SQeSIAA1',
'0032000001SRNSRAA5',
'0032000001SimvRAAR',
'0032000001SmDkzAAF',
'0032000001SmEDKAA3',
'0032000001TCIk1AAH',
'0032000001TCzBGAA1',
'0032000001TDbFtAAL',
'0032000001TDx9OAAT',
'0032000001TEATrAAP',
'0032000001TEWrfAAH',
'0032000001TlSKwAAN',
'0032000001TlcneAAB',
'0032000001TmKaBAAV',
'0032000001TnXHiAAN',
'0032000001UDd7bAAD',
'0032000001UF026AAD',
'0032000001UFIWSAA5',
'0032000001UFur7AAD',
'0032000001UGAfcAAH',
'0032000001UGDnSAAX',
'0032000001UGhm0AAD',
'0032000001UGmTUAA1',
'0032000001UvDSpAAN',
'0032000001Uw19NAAR',
'0032000001UwgguAAB',
'0032000001V1hwhAAB',
'0032000001V4Ii7AAF',
'0032000001V4MsFAAV',
'0032000001V4d2vAAB',
'0032000001VQsxUAAT',
'0032000001VQvwfAAD',
'0032000001VQwFlAAL',
'0032000001VRxTgAAL',
'0032000001VSRl3AAH',
'0032000001VSTvVAAX',
'0032000001VSm68AAD',
'0032000001VT7ufAAD',
'0032000001VT8RUAA1',
'0032000001VTCXXAA5',
'0032000001VTDC3AAP',
'0032000001VTaWUAA1',
'0032000001VU2zEAAT',
'0032000001W6LV1AAN',
'0032000001W6S7QAAV',
'0032000001W9X4pAAF',
'0032000001WA7fbAAD',
'0032000001WAL3WAAX',
'0032000001WN9VxAAL',
'0032000001WNIldAAH',
'0032000001WXtXvAAL',
'0032000001WXvkEAAT',
'0032000001WYDCqAAP',
'0032000001WucJFAAZ',
'0032000001WvJhCAAV',
'0032000001WvNF6AAN',
'0032000001WviBoAAJ',
'0032000001WvpODAAZ',
'0032000001Wvu6DAAR',
'0032000001Ww5spAAB',
'0032000001Ww5vAAAR',
'0032000001WwBw1AAF',
'0032000001WwZISAA3',
'0032000001WxDNUAA3',
'0032000001WxepCAAR',
'0032000001WyLfFAAV',
'0032000001XWZ3BAAX',
'0032000001XX5jkAAD',
'0032000001XXYk5AAH',
'0032000001XXa6WAAT',
'0032000001XXaH0AAL',
'0032000001XXbfOAAT',
'0032000001XZ097AAD',
'0032000001XvezAAAR',
'0032000001XwXVkAAN',
'0032000001XxGEfAAN',
'0032000001Xy80JAAR',
'0032000001XyZidAAF',
'0032000001XybprAAB',
'0032000001XyxQLAAZ',
'0032000001YCY3nAAH',
'0032000001YDEXMAA5',
'0032000001YDFkZAAX',
'0032000001YDXWlAAP',
'0032000001YDyRwAAL',
'0032000001YEGgUAAX',
'0032000001YEMQGAA5',
'0032000001YEaZ4AAL',
'0032000001YEfHPAA1',
'0032000001YExwkAAD',
'0032000001YF0IiAAL',
'0032000001YF3sDAAT',
'0032000001YF5Z7AAL',
'0032000001YFE5cAAH',
'0032000001YFGhAAAX',
'0032000001YFKhEAAX',
'0032000001YFOSmAAP',
'0032000001YFdjNAAT',
'0032000001YGGjCAAX',
'0032000001YkSyBAAV',
'0032000001YlHZ9AAN',
'0032000001YlM4BAAV',
'0032000001YlMQ2AAN',
'0032000001YlWezAAF',
'0032000001YlWuxAAF',
'0032000001YlsR4AAJ',
'0032000001YlzbjAAB',
'0032000001Ym0YgAAJ',
'0032000001YmDHnAAN',
'0032000001YnHLAAA3',
'0032000001YnJNQAA3',
'0032000001YnOM6AAN',
'0032000001YnwIYAAZ',
'0032000001ZHQlRAAX',
'0032000001ZHWpoAAH',
'0032000001ZHX1jAAH',
'0032000001ZHe68AAD',
'0032000001ZHf4mAAD',
'0032000001ZHn21AAD',
'0032000001ZHnV6AAL',
'0032000001ZHx2YAAT',
'0032000001ZI3eBAAT',
'0032000001ZIBuyAAH',
'0032000001ZIWGZAA5',
'0032000001ZIbgtAAD',
'0032000001ZJ5ugAAD',
'0032000001ZJQ3sAAH',
'0032000001ZJXDuAAP',
'0032000001ZJe94AAD',
'0032000001ZJuMRAA1',
'0032000001ZK7fFAAT',
'0032000001ZKPBGAA5',
'0032000001ZKVl6AAH',
'0032000001Zu7ExAAJ',
'0032000001Zu7rLAAR',
'0032000001ZuWUgAAN',
'0032000001ZuapiAAB',
'0032000001ZufcRAAR',
'0032000001ZvLuVAAV',
'0032000001ZvUpaAAF',
'0032000001ZvfyyAAB',
'0032000001Zvg77AAB',
'0032000001Zvk3UAAR',
'0032000001ZwHbRAAV',
'0032000001ZwVMFAA3',
'0032000001ZwXTSAA3',
'0032000001ZwjgnAAB',
'0032000001ZwqJSAAZ',
'0032000001Zx3lEAAR',
'0032000001Zx4SnAAJ',
'0032000001Zx8p4AAB',
'0032000001ZxFVrAAN',
'0032000001ZxHgSAAV',
'0032000001aIks0AAC',
'0032000001aIqOMAA0',
'0032000001aJYKaAAO',
'0032000001aJg1jAAC',
'0032000001aJns6AAC',
'0032000001aKjDHAA0',
'0032000001aLJIDAA4',
'0032000001aLOubAAG',
'0032000001aLi2kAAC',
'0032000001aM2dmAAC',
'0032000001aM3BMAA0',
'0032000001aMTRqAAO',
'0032000001adOxuAAE',
'0032000001adTh8AAE',
'0032000001adjsIAAQ',
'0032000001admwWAAQ',
'0032000001adp3oAAA',
'0032000001adpUWAAY',
'0032000001aeQPtAAM',
'0032000001afgiEAAQ',
'0032000001ag9DjAAI',
'0032000001agqlbAAA',
'0032000001agtYfAAI',
'0032000001agyhOAAQ',
'0032000001ah0QOAAY',
'0032000001b3h3jAAA',
'0032000001b453dAAA',
'0032000001b4WBtAAM',
'0032000001b5DFpAAM',
'0032000001b5dT1AAI',
'0032000001b6AJ6AAM',
'0032000001bBOq9AAG',
'0032000001bFRj6AAG',
'0032000001bFdYPAA0',
'0032000001bFtnAAAS',
'0032000001bjcgoAAA',
'0032000001bjeRKAAY',
'0032000001bk67bAAA',
'0032000001bk9kIAAQ',
'0032000001bkE6bAAE',
'0032000001bkNFLAA2',
'0032000001bmDoxAAE',
'0032000001bzXPHAA2',
'0032000001bzYkZAAU',
'0032000001bzom8AAA',
'0032000001bzxtWAAQ',
'0032000001c01jMAAQ',
'0032000001c02M3AAI',
'0032000001c05c2AAA',
'0032000001cMCU6AAO',
'0032000001cMdwHAAS',
'0032000001cNbdpAAC',
'0032000001cODoZAAW',
'0032000001cOPC4AAO',
'0032000001cOQ5HAAW',
'0032000001cT1NqAAK',
'0032000001cT52kAAC',
'0032000001cTUQwAAO',
'0032000001cVE52AAG',
'0032000001cVFiuAAG',
'0032000001cVGI9AAO',
'0032000001cVRRfAAO',
'0032000001cVlgXAAS',
'0032000001cWHY4AAO',
'0032000001cWRM7AAO',
'0032000001cWTTgAAO',
'0032000001cwvt4AAA',
'0032000001cxaHnAAI',
'0032000001cywtYAAQ',
'0032000001czcuYAAQ',
'0032000001cznLlAAI',
'0032000001czxsyAAA',
'0032000001dLY2dAAG',
'0032000001dN3wDAAS',
'0032000001dNTEtAAO',
'0032000001dO9iXAAS',
'0032000001dOIiyAAG',
'0032000001dOc77AAC',
'0032000001dOwq3AAC',
'0032000001dPD9qAAG',
'0032000001dPG5GAAW',
'0032000001dTfmvAAC',
'0032000001dTqlRAAS',
'0032000001dU3vXAAS',
'0032000001dUKnaAAG',
'0032000001dUescAAC',
'0032000001dWK3LAAW',
'0032000001dWWFRAA4',
'0032000001dpFrHAAU',
'0032000001drDieAAE',
'0032000001drSEKAA2',
'0032000001drjRZAAY',
'0032000001drqIRAAY',
'0032000001drrfXAAQ',
'0032000001eDrRKAA0',
'0032000001eEA2zAAG',
'0032000001eELnlAAG',
'0032000001eEuMkAAK',
'0032000001eFPVnAAO',
'0032000001eFQjOAAW',
'0032000001eFTCBAA4',
'0032000001eFXjwAAG',
'0032000001eFqFAAA0',
'0032000001eG9IdAAK',
'0032000001eGCXyAAO',
'0032000001eGDqRAAW',
'0032000001eGF4RAAW',
'0032000001eGzHzAAK',
'0032000001eHfYPAA0',
'0032000001eHrrHAAS',
'0032000001eYr8fAAC',
'0032000001eZG8tAAG',
'0032000001eZIKXAA4',
'0032000001eZVo8AAG',
'0032000001eZeWzAAK',
'0032000001eZvqCAAS',
'0032000001eaL0JAAU',
'0032000001eaf48AAA',
'0032000001eagapAAA',
'0032000001eagn2AAA',
'0032000001elJ4hAAE',
'0032000001elUyoAAE',
'0032000001elalbAAA',
'0032000001elo7KAAQ',
'0032000001eltHoAAI',
'0032000001eltvuAAA',
'0032000001elvcaAAA',
'0032000001emn94AAA',
'0032000001emw8eAAA',
'0032000001enIphAAE',
'0032000001enWtAAAU',
'0032000001enYZLAA2',
'0032000001enZQeAAM',
'0032000001encFTAAY',
'0032000001eo9KXAAY',
'0032000001eoIQyAAM',
'0032000001eoXtqAAE',
'0032000001epJ55AAE',
'0032000001f1UDJAA2',
'0032000001f1fSTAAY',
'0032000001f1kS7AAI',
'0032000001f1tt6AAA',
'0032000001f1vLhAAI',
'0032000001f2343AAA',
'0032000001fAWslAAG',
'0032000001fAlgcAAC',
'0032000001fAonHAAS',
'0032000001fAtW4AAK',
'0032000001fAxWTAA0',
'0032000001fB3nkAAC',
'0032000001fB97ZAAS',
'0032000001fBBqxAAG',
'0032000001fBC3gAAG',
'0032000001fBVI8AAO',
'0032000001fCu80AAC',
'0032000001fDZEqAAO',
'0032000001fDZwLAAW',
'0032000001fDc9LAAS',
'0032000001fDd5IAAS',
'0032000001fDdHhAAK',
'0032000001fDm2ZAAS',
'0032000001fE6HjAAK',
'0032000001fEP9sAAG',
'0032000001fZqiDAAS',
'0032000001fZytxAAC',
'0032000001fa3D9AAI',
'0032000001fa9o7AAA',
'0032000001faAyEAAU',
'0032000001faSdgAAE',
'0032000001faXFDAA2',
'0032000001fcKRVAA2',
'0032000001fcKkaAAE',
'0032000001fcPgeAAE',
'0032000001fcQg6AAE',
'0032000001fdAH3AAM',
'0032000001fdAV5AAM',
'0032000001fdHnCAAU',
'0032000001fdc3kAAA',
'0032000001fuhbeAAA',
'0032000001fujthAAA',
'0032000001fuklvAAA',
'0032000001fv11VAAQ',
'0032000001fvDeYAAU',
'0032000001gChCnAAK',
'0032000001gChwlAAC',
'0032000001gClUvAAK',
'0032000001gClzNAAS',
'0032000001gCpOUAA0',
'0032000001gFFj8AAG',
'0032000001gFNJMAA4',
'0032000001gOKEsAAO',
'0032000001gOKjwAAG',
'0032000001gOLujAAG',
'0032000001gONlXAAW',
'0032000001gObKtAAK',
'0032000001gj52kAAA',
'0032000001gjCZxAAM',
'0032000001gjO8vAAE',
'0032000001gjRJKAA2',
'0032000001gjZ9FAAU',
'0032000001gjZXWAA2',
'0032000001gjtmjAAA',
'0032000001gkPHNAA2',
'0032000001gkSOpAAM',
'0032000001gkf6MAAQ',
'0032000001gky9mAAA',
'0032000001gl6d2AAA',
'0032000001glSr6AAE',
'0032000001gleE3AAI',
'0032000001glmj8AAA',
'0032000001glpfEAAQ',
'0032000001glsY8AAI',
'0032000001glvHAAAY',
'0032000001gm3kuAAA',
'0032000001gm5fNAAQ',
'0032000001gmMkgAAE',
'0032000001gmllBAAQ',
'0032000001gmo3PAAQ',
'0032000001gmqggAAA',
'0032000001gn0CrAAI',
'0032000001gn2qEAAQ',
'0032000001gn7kjAAA',
'0032000001hbarSAAQ',
'0032000001hbddZAAQ',
'0032000001hbdsoAAA',
'0032000001hbg0lAAA',
'0032000001hbpOpAAI',
'0032000001hbqMBAAY',
'0032000001hbqsCAAQ',
'0032000001hbsvvAAA',
'0032000001hc06fAAA',
'0032000001hcAdiAAE',
'0032000001hcTbwAAE',
'0032000001hcVP9AAM',
'0032000001hcmqpAAA',
'0032000001hcnziAAA',
'0032000001hd8P1AAI',
'0032000001hd9itAAA'
'0032000001hd9itAAA',
'0032000001hd9l7AAA',
'0032000001hdFPiAAM',
'0032000001hdIuNAAU',
'0032000001hdMvPAAU',
'0032000001hdQVmAAM',
'0032000001hdTaQAAU',
'0032000001hdYuSAAU',
'0032000001hdfVFAAY',
'0032000001hdg6VAAQ',
'0032000001hdyQIAAY',
'0032000001he5rPAAQ',
'0032000001heC17AAE',
'0032000001heF8mAAE',
'0032000001heS9FAAU',
'0032000001heT1dAAE',
'0032000001heUUIAA2',
'0032000001heUwBAAU',
'0032000001heV4CAAU',
'0032000001hef6YAAQ',
'0032000001hen5DAAQ',
'0032000001heo4JAAQ',
'0032000001hesbUAAQ',
'0032000001hev5lAAA',
'0032000001hf0YWAAY',
'0032000001hfGBDAA2',
'0032000001hfSEBAA2',
'0032000001hfaGTAAY',
'0032000001iIm8uAAC',
'0032000001iPuEHAA0',
'0032000001iPvZwAAK',
'0032000001iQ2C2AAK',
'0032000001iQ35VAAS',
'0032000001iQ4UIAA0',
'0032000001iQBu0AAG',
'0032000001iQDVBAA4',
'0032000001iQLnLAAW',
'0032000001iQLtiAAG',
'0032000001iQUKOAA4',
'0032000001iggPRAAY'
)
AND paid__c IS NULL
AND status NOT LIKE 'CANCEL%'
AND status NOT LIKE 'ERROR%'
AND effectivedate >= DATE '2016-06-22'
AND pph__c < 15.9
AND recurrency__c > 0
;
