SELECT
	replace(o.city,'+','') as city,
	LEFT(Locale__c,2) as country,
	o.ordernumber as orderid,
	o.pph__c as price,
	o.customer_id__C as custoid,
	o.customer_name__c as Fullname,
	o.customer_email__c as Email,
	o.sfid as SFID,
	o.status as Orderstatus,    
    o.LastModifiedDate as Modif_date

FROM bi.orders_w_marketing o

WHERE
	o.customer_id__c in ('0032000001UDASBAA5',
'0032000001W9bCyAAJ',
'0032000001NNUHoAAP',
'0032000001Tl92rAAB',
'0032000001N1bdIAAR',
'0032000001Yk10nAAB',
'0032000001R4vnmAAB',
'0032000001QcHx4AAF',
'0032000001MUmwUAAT',
'0032000001KpJ7LAAV',
'0032000001UvcqYAAR',
'0032000001SNyXiAAL',
'0032000001TF7zcAAD',
'0032000001WxMcDAAV',
'0032000001N1R9dAAF',
'0032000001KDEFsAAP',
'0032000001WA6IrAAL',
'0032000001WZ2V1AAL',
'0032000001MXcvnAAD',
'0032000001HjEudAAF',
'0032000001YDFt7AAH',
'0032000001HjFHfAAN',
'0032000001RkjiKAAR',
'0032000001KCGBlAAP',
'0032000001Qb619AAB',
'0032000001UEYMqAAP',
'0032000001Skpl9AAB',
'0032000001PlZ98AAF',
'0032000001HjFBlAAN',
'0032000001VTUDaAAP',
'0032000001KEK3UAAX',
'0032000001Pn4RTAAZ',
'0032000001OFSQfAAP',
'0032000001TDXmrAAH',
'0032000001YDzYcAAL',
'0032000001WQJ5zAAH',
'0032000001SiZm7AAF',
'0032000001MVSWZAA5',
'0032000001SPuaWAAT',
'0032000001XvmA7AAJ',
'0032000001TjU7PAAV',
'0032000001TEPfIAAX',
'0032000001YDg26AAD',
'0032000001R46kpAAB',
'0032000001R57IuAAJ',
'0032000001PX513AAD',
'0032000001UFfXNAA1',
'0032000001OCo2QAAT',
'0032000001IA3gOAAT',
'0032000001MXjB7AAL',
'0032000001RhtFnAAJ',
'0032000001N0W2PAAV',
'0032000001UClzJAAT',
'0032000001JsGdsAAF',
'0032000001TmCGKAA3',
'0032000001SiwmrAAB',
'0032000001R2PkNAAV',
'0032000001M04pRAAR',
'0032000001UCjtvAAD',
'0032000001OdpmiAAB',
'0032000001TmD9XAAV',
'0032000001SNWQTAA5',
'0032000001O0DyPAAV',
'0032000001UEzWUAA1',
'0032000001N1IMWAA3',
'0032000001QZkvYAAT',
'0032000001Yjyg3AAB',
'0032000001L7QD9AAN',
'0032000001YG7MUAA1',
'0032000001WQUlKAAX',
'0032000001W6ZoZAAV',
'0032000001YFkbZAAT',
'0032000001WvgAxAAJ',
'0032000001bjCSoAAM',
'0032000001VQrcCAAT',
'0032000001bFPszAAG',
'0032000001WwNOpAAN',
'0032000001dOwO4AAK',
'0032000001ZIx2gAAD',
'0032000001V1b8OAAR',
'0032000001V3iZTAAZ',
'0032000001cSvMsAAK',
'0032000001O043QAAR',
'0032000001aem8eAAA',
'0032000001dqrsGAAQ',
'0032000001ZtF92AAF',
'0032000001aM9rkAAC',
'0032000001dURXOAA4',
'0032000001R20mHAAR',
'0032000001Tlhm2AAB',
'0032000001RlOlnAAF',
'0032000001Xyx3KAAR',
'0032000001KEJumAAH',
'0032000001cVkISAA0',
'0032000001YkiZbAAJ',
'0032000001V59N6AAJ',
'0032000001R55B7AAJ',
'0032000001cykIvAAI',
'0032000001Tkm5YAAR',
'0032000001YnBUoAAN',
'0032000001RixbZAAR',
'0032000001TjU7PAAV',
'0032000001YlABXAA3',
'0032000001XYw2cAAD',
'0032000001XWKElAAP',
'0032000001YGA8jAAH',
'0032000001QbBboAAF',
'0032000001YGRjyAAH',
'0032000001TBkyXAAT',
'0032000001YldCDAAZ',
'0032000001WNZOyAAP',
'0032000001Yk1HnAAJ',
'0032000001YERpeAAH',
'0032000001YEylmAAD',
'0032000001YloJnAAJ',
'0032000001YDS2eAAH',
'0032000001OEbK9AAL',
'0032000001XvZzvAAF',
'0032000001ZHin9AAD',
'0032000001YEAX1AAP')

	and o.status = 'CANCELLED TERMINATED'
	and o.effectivedate >= '2016-05-25'
    and o.LastModifiedDate >= '2016-05-18'
	and o.test__c = '0'
	and o.type = '60'
	and o.recurrency__c > 6
	 
GROUP BY 
	city,
	country,
	orderid,
	price,
	custoid,
	Fullname,
	Email,
	SFID,
	Orderstatus,
	Modif_date