		Confirmed End	Confirmed End	Confirmed End	Confirmed End	Confirmed End	Confirmed End	Confirmed End	Confirmed End	Confirmed End	Confirmed End	Confirmed End	Confirmed End	Confirmed End	Confirmed End	Confirmed End	Confirmed End
		2019	2019	2019	2019	2019	2019	2019	2019	2020	2020	2020	2020	2020	2020	2020	2020
Status		Mai	Juni	Juli	August	September	Oktober	November	Dezember	Januar	Februar	März	April	Mai	Juni	Juli	September
CHURNED	Amount Lost	12.943,22 €	16.335,34 €	6.568,68 €													
CHURNED	Number Opps	45	48	17													
OFFBOARDING	Amount Lost	551,98 €		11.625,11 €	5.633,10 €	5.537,27 €	3.022,09 €	2.062,56 €	1.756,90 €	653,94 €	357,58 €	217,00 €		250,15 €	688,86 €		379,03 €
OFFBOARDING	Number Opps	1		15	10	9	8	10	2	2	3	1		1	2		1
RETENTION	Amount Lost			430,55 €	3.080,40 €	1.441,52 €	1.466,87 €	212,31 €	393,44 €	702,60 €	2.168,47 €	782,39 €	1.117,42 €	331,03 €	405,54 €	672,66 €	
RETENTION	Number Opps			2	4	3	4	1	2	3	4	4	2	1	3	1	
Gesamtsumme	Amount Lost	13.495,20 €	16.335,34 €	18.624,34 €	8.713,50 €	6.978,79 €	4.488,96 €	2.274,88 €	2.150,34 €	1.356,54 €	2.526,05 €	999,39 €	1.117,42 €	581,18 €	1.094,40 €	672,66 €	379,03 €
Gesamtsumme	Number Opps	46	48	34	14	12	12	11	4	5	7	5	2	2	5	1	1
