sfid,avg_traffic_light
"0060J00000t2QiKQAU,""2,6"""
"0060J00000t2uDtQAI,""2,8"""
"0060J00000t2wixQAA,""2,9"""
"0060J00000t3U1yQAE,""3,0"""
"0060J00000rxEIZQA2,""3,0"""
0060J00000qTG1WQAW,\N
"0060J00000tUgqZQAS,""2,8"""
"0060J00000uy9gkQAA,""3,0"""
"0060J00000xjqhLQAQ,""2,3"""
"0060J00000uz0ASQAY,""2,3"""
"0060J00000uzEwvQAE,""2,8"""
0060J00000soUeHQAU,\N
"0060J00000v1mZmQAI,""2,4"""
"0060J00000v1WauQAE,""2,9"""
"0060J00000vucdDQAQ,""2,9"""
"0060J00000t2DYgQAM,""2,8"""
"0060J00000wob5OQAQ,""2,9"""
"0060J00000lcPsnQAE,""2,9"""
"0060J00000wpU9iQAE,""2,9"""
"0060J00000nuYUZQA2,""3,0"""
"0060J00000wpGduQAE,""2,9"""
"0060J00000t3FzTQAU,""2,8"""
"0060J00000vvEzrQAE,""2,9"""
0060J00000sqn8XQAQ,\N
"0060J00000wq9LcQAI,""2,9"""
0060J00000ohuSkQAI,\N
"0060J00000sSg2dQAC,""1,0"""
"0060J00000xobKuQAI,""2,9"""
0060J00000sTSpSQAW,\N
0060J00000sUvZ6QAK,\N
"0060J00000soGQhQAM,""2,7"""
"0060J00000wlzDbQAI,""2,9"""
"0060J00000sTOB4QAO,""2,9"""
"0060J00000snkVJQAY,""2,9"""
0060J00000rxRl7QAE,\N
"0060J00000woK7iQAE,""2,9"""
"0060J00000pGVPUQA4,""2,5"""
"0060J00000uxumMQAQ,""2,9"""
"0060J00000t2tdzQAA,""3,0"""
"0060J00000v1QfgQAE,""2,3"""
"0060J00000vw05vQAA,""2,9"""
"0060J00000whv19QAA,""2,9"""
"0060J00000t2ENAQA2,""2,8"""
"0060J00000wfkJFQAY,""2,8"""
"0060J00000wotWJQAY,""1,0"""
"0060J00000x0JLAQA2,""2,7"""
"0060J00000sUKyvQAG,""1,0"""
"0060J00000wp15dQAA,""2,8"""
0060J00000v0kRDQAY,\N
"0060J00000sVi9QQAS,""2,9"""
0060J00000t2vEiQAI,\N
"0060J00000t1taaQAA,""2,8"""
"0060J00000wq8zkQAA,""2,9"""
"0060J00000t3HFiQAM,""2,9"""
"0060J00000vo1ZmQAI,""2,9"""
"0060J00000t3HH5QAM,""2,9"""
"0060J00000xoTxPQAU,""2,8"""
0060J00000v1Z27QAE,\N
"0060J00000qCgWxQAK,""3,0"""
"0060J00000xoqAFQAY,""2,9"""
"0060J00000uzmtRQAQ,""2,9"""
0060J00000t1vHBQAY,\N
"0060J00000qdW2VQAU,""1,0"""
"0060J00000o3lqWQAQ,""3,0"""
"0062000000jVTnZAAW,""2,7"""
"0060J00000xo3hFQAQ,""2,8"""
"0060J00000rcyo6QAA,""2,4"""
"0060J00000woLVPQA2,""2,9"""
"0062000000kpDylAAE,""2,9"""
"0060J00000oRljyQAC,""2,9"""
"0060J00000oPvYOQA0,""3,0"""
"0060J00000rLsSeQAK,""2,5"""
"0060J00000uyLo6QAE,""3,0"""
"0062000000jShNfAAK,""2,4"""
"0060J00000t2u5ZQAQ,""3,0"""
"0060J00000t2gY5QAI,""2,8"""
"0060J00000t25q9QAA,""2,8"""
"0060J00000o4TgpQAE,""3,0"""
"0060J00000o6Ag3QAE,""2,9"""
"0060J00000oPLHvQAO,""2,8"""
"0060J00000uyBVzQAM,""2,9"""
"0060J00000tUwwXQAS,""3,0"""
"0060J00000r08exQAA,""3,0"""
"0060J00000woK8qQAE,""2,9"""
"0060J00000rMRUpQAO,""2,9"""
0060J00000uxxpOQAQ,\N
"0060J00000wpYEGQA2,""2,9"""
"0060J00000rr70ZQAQ,""3,0"""
"0060J00000rrzVWQAY,""2,9"""
"0060J00000rxcWLQAY,""3,0"""
"0060J00000uy2v1QAA,""3,0"""
"0060J00000o40aqQAA,""2,7"""
"0060J00000t26TzQAI,""2,9"""
"0060J00000v1heGQAQ,""1,0"""
"0060J00000sTHtxQAG,""2,5"""
"0060J00000v1IucQAE,""2,9"""
"0060J00000vogGOQAY,""3,0"""
"0060J00000t1uvUQAQ,""3,0"""
"0060J00000t2PaoQAE,""2,9"""
"0060J00000t32krQAA,""3,0"""
"0060J00000t38L2QAI,""1,0"""
"0060J00000t3B3SQAU,""1,0"""
"0060J00000wgYVjQAM,""1,0"""
"0060J00000t49eMQAQ,""2,8"""
"0060J00000tTPN6QAO,""3,0"""
"0060J00000tTukLQAS,""2,1"""
"0060J00000oPO2PQAW,""3,0"""
"0060J00000uy0G7QAI,""1,0"""
"0060J00000vvfCnQAI,""3,0"""
"0060J00000uz0YPQAY,""2,9"""
0060J00000uz4X3QAI,\N
"0060J00000uyMM8QAM,""3,0"""
"0060J00000uyVPeQAM,""2,9"""
"0062000000iZLrHAAW,""3,0"""
"0060J00000v0ITQQA2,""1,0"""
"0060J00000v0IUsQAM,""1,0"""
"0060J00000v16AnQAI,""3,0"""
"0060J00000v1JtQQAU,""3,0"""
"0060J00000vo9tMQAQ,""2,9"""
"0060J00000wfXxyQAE,""3,0"""
0060J00000sqsXAQAY,\N
"0060J00000wolYYQAY,""2,8"""
"0060J00000o56OjQAI,""1,0"""
"0060J00000wqF8WQAU,""2,8"""
"0060J00000x3RWRQA2,""2,5"""
"0060J00000uzWRyQAM,""3,0"""
"0060J00000xojoIQAQ,""2,9"""
"0060J00000rrbaDQAQ,""3,0"""
"0060J00000uzWxVQAU,""2,9"""
"0060J00000nt3INQAY,""2,7"""
"0060J00000pfxHQQAY,""2,9"""
"0060J00000pFzKFQA0,""2,9"""
"0060J00000sq1IWQAY,""3,0"""
"0060J00000qAHq1QAG,""2,9"""
"0060J00000vuxW3QAI,""3,0"""
"0060J00000t2DjZQAU,""2,9"""
"0060J00000v0oL5QAI,""2,9"""
"0060J00000ntPUKQA2,""2,9"""
"0060J00000ofapPQAQ,""2,9"""
"0060J00000wory3QAA,""2,9"""
"0060J00000ohUIJQA2,""2,3"""
"0060J00000sp5U8QAI,""2,9"""
"0060J00000sqAjAQAU,""1,0"""
"0060J00000oPtcYQAS,""2,9"""
"0060J00000poGjLQAU,""2,9"""
"0060J00000qfgqfQAA,""1,0"""
"0060J00000mD7OVQA0,""2,9"""
"0060J00000t1dc0QAA,""2,8"""
"0060J00000xGOJ1QAO,""2,8"""
"0060J00000vw0rRQAQ,""2,5"""
"0060J00000spSSkQAM,""3,0"""
"0060J00000t1dXZQAY,""3,0"""
"0060J00000pDt2qQAC,""2,8"""
"0060J00000ne2z6QAA,""2,9"""
"0060J00000vh4qTQAQ,""2,2"""
"0060J00000s4JooQAE,""2,3"""
"0060J00000nCANfQAO,""3,0"""
"0060J00000srWG0QAM,""2,5"""
"0060J00000t2l2qQAA,""3,0"""
"0060J00000rbqnYQAQ,""3,0"""
"0060J00000soUBjQAM,""1,8"""
"0060J00000sTfVJQA0,""1,0"""
"0060J00000t2uMlQAI,""3,0"""
"0060J00000t3HDmQAM,""2,8"""
"0060J00000t3OHCQA2,""3,0"""
"0060J00000spo4tQAA,""2,9"""
0060J00000v1l1eQAA,\N
"0060J00000ncivbQAA,""1,0"""
"0060J00000t3pmpQAA,""3,0"""
"0060J00000uztuzQAA,""2,9"""
"0060J00000uzXzSQAU,""2,7"""
"0060J00000v0bZ3QAI,""2,8"""
"0060J00000t3bKYQAY,""2,3"""
"0060J00000v0GjzQAE,""2,9"""
"0060J00000t1kBCQAY,""2,5"""
"0060J00000vojQPQAY,""2,2"""
"0060J00000uxuh2QAA,""2,4"""
"0060J00000v0xAgQAI,""2,4"""
"0060J00000voPXJQA2,""3,0"""
"0060J00000v1SSWQA2,""2,9"""
"0060J00000uz35OQAQ,""3,0"""
"0060J00000v1tisQAA,""2,9"""
0060J00000v1UawQAE,\N
"0060J00000x1AATQA2,""2,9"""
"0062000000gvG1WAAU,""3,0"""
"0060J00000vgxybQAA,""2,8"""
"0060J00000v1UhOQAU,""3,0"""
"0060J00000v1HPDQA2,""2,9"""
"0060J00000t1ua7QAA,""2,8"""
"0060J00000vukAgQAI,""2,4"""
"0060J00000v1RBSQA2,""2,5"""
"0060J00000wpNZWQA2,""2,2"""
"0060J00000pGbGzQAK,""2,5"""
"0060J00000qeilvQAA,""3,0"""
"0060J00000sqsNoQAI,""2,2"""
"0060J00000t2vD6QAI,""2,8"""
"0060J00000vvFvlQAE,""3,0"""
"0062000000iY9EpAAK,""3,0"""
"0060J00000oSWQbQAO,""3,0"""
"0060J00000uyyrPQAQ,""2,4"""
"0060J00000o7QjwQAE,""1,9"""
"0060J00000rdWZjQAM,""2,5"""
"0060J00000qTRqVQAW,""3,0"""
0060J00000wlYQ5QAM,\N
"0060J00000tUudvQAC,""3,0"""
"0060J00000xoFXsQAM,""2,9"""
"0060J00000wokTkQAI,""2,8"""
"0060J00000wp0aPQAQ,""2,9"""
"0060J00000wpuN6QAI,""2,2"""
"0060J00000oSVfXQAW,""1,0"""
"0060J00000x0XpYQAU,""3,0"""
"0060J00000tUr2UQAS,""2,5"""
0060J00000rr44JQAQ,\N
"0060J00000x3gFFQAY,""2,7"""
0060J00000snofIQAQ,\N
"0060J00000mCRZsQAO,""2,9"""
"0060J00000xGWunQAG,""2,9"""
"0060J00000pfar8QAA,""1,0"""
"0060J00000uy8qZQAQ,""2,3"""
"0060J00000whnnVQAQ,""2,7"""
"0060J00000o62yQQAQ,""2,8"""
"0060J00000nC07PQAS,""3,0"""
0060J00000ntRcNQAU,\N
"0060J00000vocWRQAY,""2,9"""
0060J00000voNORQA2,\N
"0060J00000uy94CQAQ,""2,8"""
"0060J00000pHA2BQAW,""3,0"""
"0060J00000o6HsqQAE,""2,2"""
"0060J00000vuUlZQAU,""3,0"""
"0060J00000pFzLDQA0,""3,0"""
"0060J00000wfwM5QAI,""2,8"""
"0060J00000v08bwQAA,""2,4"""
"0060J00000qTJ1IQAW,""3,0"""
"0060J00000uyfYeQAI,""2,5"""
0060J00000vgvaoQAA,\N
"0060J00000sVJLCQA4,""3,0"""
"0060J00000wjwUzQAI,""2,3"""
0060J00000sq5m0QAA,\N
"0060J00000o7SaBQAU,""3,0"""
"0060J00000nuuOuQAI,""2,4"""
"0060J00000pgD39QAE,""3,0"""
"0060J00000sWXs8QAG,""3,0"""
"0060J00000t2xjrQAA,""2,9"""
"0060J00000t1dNFQAY,""2,9"""
"0060J00000pfQ4rQAE,""3,0"""
"0060J00000uyjpfQAA,""2,9"""
"0060J00000vvyNOQAY,""2,9"""
"0060J00000t3APrQAM,""3,0"""
"0060J00000t3d3UQAQ,""2,8"""
"0060J00000wf8AtQAI,""1,0"""
"0060J00000t3f3hQAA,""2,5"""
"0060J00000v08MNQAY,""1,0"""
"0060J00000wfQYCQA2,""1,0"""
"0060J00000spihrQAA,""3,0"""
"0060J00000vuh0bQAA,""2,9"""
"0060J00000v1ddAQAQ,""1,0"""
"0060J00000uxiGKQAY,""2,7"""
0060J00000wfYeYQAU,\N
"0060J00000tUD3aQAG,""2,9"""
"0060J00000tUxR6QAK,""2,9"""
"0060J00000wkLOwQAM,""1,0"""
"0060J00000vgpCSQAY,""2,9"""
"0060J00000uypDIQAY,""2,8"""
"0060J00000whvjAQAQ,""2,9"""
"0060J00000uyfseQAA,""3,0"""
"0062000000iP6KkAAK,""3,0"""
"0060J00000srBTLQA2,""3,0"""
"0060J00000t3rSrQAI,""1,0"""
"0060J00000uzbk5QAA,""2,3"""
"0060J00000wkF6yQAE,""2,7"""
0060J00000wlX3tQAE,\N
"0060J00000tUJeIQAW,""2,4"""
"0060J00000wlZyVQAU,""2,8"""
"0060J00000v0K4wQAE,""3,0"""
"0062000000jDFIVAA4,""1,8"""
"0060J00000voqmxQAA,""2,9"""
"0060J00000v0m4LQAQ,""3,0"""
"0060J00000v1njiQAA,""3,0"""
"0060J00000wpiOwQAI,""2,8"""
"0062000000kbnkPAAQ,""2,9"""
"0060J00000voDNmQAM,""2,9"""
"0060J00000vuguJQAQ,""3,0"""
"0060J00000qdMIpQAM,""1,0"""
"0060J00000uzTHsQAM,""2,9"""
"0060J00000wfYCyQAM,""3,0"""
"0060J00000woJHwQAM,""2,4"""
"0060J00000o3skFQAQ,""2,9"""
0060J00000wgjYuQAI,\N
"0060J00000wq1enQAA,""2,8"""
"0060J00000xGNm1QAG,""2,7"""
"0060J00000woOiPQAU,""2,8"""
"0060J00000woUBlQAM,""2,8"""
0060J00000tTsAVQA0,\N
0062000000kaQ9xAAE,\N
"0060J00000oiFIWQA2,""2,9"""
"0060J00000plJg2QAE,""2,8"""
"0060J00000ogXBIQA2,""3,0"""
0060J00000v1WX2QAM,\N
"0060J00000qeJ6rQAE,""3,0"""
"0060J00000ruAKMQA2,""1,0"""
"0060J00000rxEBdQAM,""3,0"""
"0060J00000raLSpQAM,""2,9"""
"0060J00000sTGdtQAG,""2,3"""
"0060J00000rxM1iQAE,""2,9"""
"0060J00000ns3CWQAY,""2,5"""
"0060J00000ohvioQAA,""2,5"""
"0062000000kYzzlAAC,""2,8"""
"0060J00000rxStqQAE,""1,0"""
"0060J00000v1BqrQAE,""2,9"""
"0060J00000peji9QAA,""2,8"""
"0060J00000uzCJLQA2,""1,0"""
"0060J00000uzKcXQAU,""2,9"""
"0060J00000t1gCtQAI,""2,4"""
"0060J00000vnx30QAA,""2,8"""
"0060J00000wqNK4QAM,""2,9"""
"0060J00000t3fiaQAA,""3,0"""
"0060J00000xom9bQAA,""1,0"""
"0060J00000xoRSoQAM,""2,9"""
"0060J00000wosM3QAI,""2,4"""
"0060J00000vve3GQAQ,""2,9"""
"0060J00000t2AJlQAM,""2,8"""
"0060J00000r2IjLQAU,""2,5"""
"0060J00000t2txuQAA,""3,0"""
"0060J00000t2v4YQAQ,""2,8"""
"0060J00000rxWRsQAM,""2,9"""
"0062000000iP1DzAAK,""3,0"""
"0062000000k3jOUAAY,""1,0"""
"0060J00000x3IpZQAU,""2,7"""
"0060J00000uyP65QAE,""2,9"""
"0060J00000woVoDQAU,""2,9"""
"0060J00000t3O1sQAE,""2,5"""
"0060J00000r21CoQAI,""1,0"""
"0062000000kqMtFAAU,""3,0"""
"0062000000kZSyjAAG,""2,8"""
"0060J00000t3TI0QAM,""3,0"""
"0060J00000uyFj0QAE,""3,0"""
"0060J00000uyLtfQAE,""2,8"""
"0060J00000sqsrtQAA,""2,4"""
"0060J00000wqikLQAQ,""2,9"""
"0060J00000uzJwEQAU,""2,9"""
"0060J00000wq1nwQAA,""2,9"""
"0060J00000v04GjQAI,""2,9"""
"0060J00000wpw5pQAA,""2,3"""
"0060J00000wqvQkQAI,""2,3"""
"0060J00000vogvOQAQ,""3,0"""
"0060J00000qRlfYQAS,""1,0"""
"0060J00000r05iXQAQ,""2,6"""
"0060J00000wj8cyQAA,""2,9"""
"0060J00000worZUQAY,""2,9"""
"0060J00000x0yA9QAI,""2,8"""
"0060J00000t2XieQAE,""2,3"""
0060J00000soAWtQAM,\N
"0060J00000poEhaQAE,""1,0"""
"0060J00000t2umPQAQ,""2,3"""
"0060J00000wqvYjQAI,""2,8"""
"0060J00000rKuaIQAS,""1,0"""
"0060J00000qesBTQAY,""2,8"""
"0060J00000wqwXuQAI,""2,8"""
"0060J00000ntRduQAE,""2,3"""
"0060J00000r1lv4QAA,""2,4"""
"0060J00000oSHfyQAG,""2,5"""
"0060J00000ntuvHQAQ,""3,0"""
"0060J00000wmQX5QAM,""2,8"""
"0060J00000wpijOQAQ,""2,8"""
"0060J00000tTv5OQAS,""2,9"""
"0060J00000wpt94QAA,""2,8"""
"0060J00000vonaUQAQ,""2,2"""
"0060J00000qTQ9uQAG,""1,0"""
"0060J00000r138IQAQ,""2,4"""
"0062000000hXDI9AAO,""2,6"""
"0060J00000tVSuvQAG,""3,0"""
"0060J00000rNFtGQAW,""2,9"""
"0060J00000rxBxwQAE,""1,0"""
"0060J00000spR72QAE,""2,8"""
"0060J00000uyqNiQAI,""1,0"""
0060J00000qRHdgQAG,\N
"0060J00000wfKMpQAM,""3,0"""
"0060J00000v0ngCQAQ,""1,0"""
"0060J00000wqOn7QAE,""2,8"""
"0060J00000wp7jiQAA,""2,4"""
"0060J00000vurIPQAY,""2,8"""
"0060J00000wqjEUQAY,""2,9"""
"0060J00000wk92RQAQ,""3,0"""
"0060J00000t26b0QAA,""2,7"""
"0060J00000xoUHjQAM,""2,8"""
"0060J00000uySXaQAM,""2,3"""
"0060J00000vo9cgQAA,""1,0"""
"0060J00000wpijdQAA,""2,8"""
"0060J00000uyPFvQAM,""1,0"""
"0060J00000t41sZQAQ,""3,0"""
"0060J00000v1BpjQAE,""3,0"""
"0060J00000rJZNGQA4,""1,0"""
0060J00000vo37QQAQ,\N
"0060J00000t3tLHQAY,""2,8"""
"0060J00000x1h5YQAQ,""2,9"""
"0060J00000qeToJQAU,""2,8"""
"0060J00000wkNgyQAE,""1,0"""
"0060J00000xGOISQA4,""2,6"""
"0060J00000v0bfzQAA,""2,7"""
"0060J00000wp0oZQAQ,""2,9"""
"0060J00000wqOphQAE,""2,8"""
0062000000jFWBAAA4,\N
"0060J00000sTNITQA4,""2,9"""
"0060J00000xjl0nQAA,""3,0"""
"0060J00000uyD7kQAE,""2,8"""
"0060J00000wkdaHQAQ,""3,0"""
"0060J00000woYvxQAE,""2,9"""
"0060J00000vo7QvQAI,""2,9"""
"0060J00000wpj6VQAQ,""2,8"""
"0060J00000uyjEtQAI,""3,0"""
"0060J00000wpYQbQAM,""2,9"""
"0060J00000wq0ZqQAI,""2,9"""
0060J00000nsLQaQAM,\N
"0060J00000wqjS8QAI,""2,9"""
"0060J00000soOcZQAU,""2,3"""
"0060J00000rKPnXQAW,""3,0"""
"0060J00000wpzw5QAA,""2,9"""
"0060J00000r0zs7QAA,""3,0"""
"0060J00000uzgffQAA,""2,5"""
"0060J00000s67iwQAA,""2,8"""
"0060J00000nEcbUQAS,""3,0"""
"0060J00000wpjvaQAA,""2,9"""
"0060J00000v1T62QAE,""3,0"""
"0060J00000t1jcqQAA,""2,9"""
"0060J00000t3nNGQAY,""2,2"""
"0060J00000xp7GkQAI,""2,9"""
0060J00000rrOiQQAU,\N
0060J00000x27exQAA,\N
"0060J00000vohovQAA,""1,0"""
"0060J00000x3mYJQAY,""2,8"""
"0060J00000uzEP4QAM,""2,8"""
"0060J00000vuYn0QAE,""1,0"""
"0060J00000tTTXBQA4,""1,0"""
"0060J00000t1p5tQAA,""3,0"""
"0060J00000wqON9QAM,""1,0"""
"0060J00000t1wJ3QAI,""1,0"""
"0060J00000wquh0QAA,""2,8"""
"0060J00000nBvZPQA0,""2,9"""
"0060J00000woZE4QAM,""2,8"""
"0060J00000wpH9BQAU,""1,0"""
0060J00000uyfdKQAQ,\N
0060J00000wlXlsQAE,\N
"0060J00000woa4YQAQ,""2,8"""
0060J00000wjNAxQAM,\N
"0060J00000rKozHQAS,""2,9"""
"0060J00000vh5YoQAI,""2,8"""
"0060J00000t2iaDQAQ,""3,0"""
"0060J00000woaNfQAI,""1,0"""
"0060J00000xom97QAA,""2,9"""
"0060J00000qRw3bQAC,""3,0"""
"0060J00000v1GeMQAU,""2,9"""
"0060J00000t2wwfQAA,""2,2"""
"0060J00000og7m6QAA,""2,9"""
"0060J00000tTlKiQAK,""3,0"""
"0060J00000tTwCfQAK,""2,3"""
"0060J00000t3OLOQA2,""2,1"""
"0060J00000vv6OHQAY,""2,9"""
"0060J00000spg0jQAA,""2,9"""
"0060J00000voJLvQAM,""1,0"""
"0060J00000vupASQAY,""2,6"""
"0060J00000v1IOvQAM,""2,9"""
"0060J00000uy4WhQAI,""2,4"""
"0062000000k39yMAAQ,""2,8"""
"0060J00000wq2xUQAQ,""2,9"""
"0062000000iYEirAAG,""3,0"""
"0062000000k43WyAAI,""3,0"""
"0062000000kqBm5AAE,""2,9"""
"0060J00000rx32xQAA,""2,8"""
0060J00000qRoZAQA0,\N
"0060J00000woavjQAA,""2,8"""
"0060J00000wqFxvQAE,""2,9"""
0060J00000wj8q5QAA,\N
0060J00000sVgAqQAK,\N
"0060J00000rxWLkQAM,""2,8"""
"0060J00000mARVsQAO,""2,9"""
"0060J00000uyEr3QAE,""1,0"""
"0060J00000pDpXmQAK,""2,4"""
"0062000000kaciIAAQ,""2,4"""
"0062000000kZ9atAAC,""2,8"""
"0060J00000voLDoQAM,""1,0"""
"0060J00000qTGNIQA4,""2,8"""
"0060J00000sTVeoQAG,""2,9"""
"0060J00000tV71mQAC,""2,9"""
"0060J00000oSQceQAG,""3,0"""
"0060J00000o5ZLjQAM,""2,5"""
0060J00000t21frQAA,\N
"0060J00000woc7jQAA,""2,8"""
"0060J00000nuXhcQAE,""2,9"""
"0060J00000wrBBVQA2,""2,9"""
"0060J00000wqG8KQAU,""1,0"""
"0060J00000r0mQHQAY,""2,8"""
"0060J00000pneoJQAQ,""2,4"""
"0060J00000rdp8eQAA,""2,9"""
"0060J00000r22MfQAI,""2,9"""
"0060J00000tUovgQAC,""2,5"""
"0060J00000sqBDQQA2,""2,8"""
"0060J00000wopeKQAQ,""1,8"""
"0060J00000oRlEWQA0,""2,9"""
0060J00000oRO2OQAW,\N
"0060J00000sqLcVQAU,""3,0"""
"0060J00000v1dUDQAY,""2,4"""
"0060J00000xoiicQAA,""2,8"""
"0062000000kaQVPAA2,""2,9"""
0060J00000qRdYDQA0,\N
"0062000000jTmwYAAS,""2,9"""
"0060J00000r1nvEQAQ,""2,8"""
0060J00000wlXjXQAU,\N
"0060J00000mBrkdQAC,""3,0"""
"0060J00000mB7yAQAS,""3,0"""
0060J00000wlXUdQAM,\N
"0060J00000wlrESQAY,""2,8"""
"0060J00000vvzwPQAQ,""2,6"""
"0060J00000xGNB5QAO,""2,8"""
"0060J00000rbwi5QAA,""2,9"""
"0060J00000t3rmmQAA,""2,8"""
0060J00000rMrT6QAK,\N
"0060J00000penVnQAI,""3,0"""
"0060J00000tVN2vQAG,""2,3"""
"0060J00000uy3j1QAA,""3,0"""
"0060J00000uyjneQAA,""2,9"""
"0060J00000qfjJZQAY,""2,9"""
"0060J00000uyOUkQAM,""2,8"""
"0060J00000qUIALQA4,""2,9"""
"0060J00000nbSOzQAM,""1,8"""
"0060J00000qgWO0QAM,""3,0"""
"0060J00000v0nn8QAA,""2,8"""
"0060J00000vo1VQQAY,""2,7"""
"0060J00000vqF64QAE,""2,9"""
"0060J00000ojCBPQA2,""3,0"""
"0060J00000pmNHZQA2,""2,9"""
"0060J00000vvjFDQAY,""2,9"""
"0060J00000rLp0WQAS,""3,0"""
"0060J00000rx2tOQAQ,""2,9"""
0060J00000uy9DTQAY,\N
"0060J00000soQZDQA2,""3,0"""
"0060J00000xobL4QAI,""2,9"""
"0060J00000xoc5eQAA,""2,9"""
"0060J00000vuZ0TQAU,""2,9"""
"0060J00000t25OeQAI,""3,0"""
"0060J00000vvJkuQAE,""2,8"""
"0060J00000x0PqJQAU,""2,8"""
"0060J00000wlWnUQAU,""2,8"""
"0060J00000pklIpQAI,""2,8"""
"0060J00000x3GCqQAM,""2,9"""
"0062000000k6ksGAAQ,""2,4"""
"0060J00000whHzTQAU,""2,9"""
"0060J00000v1SNRQA2,""1,0"""
"0060J00000mCUVRQA4,""2,5"""
"0060J00000wpsbqQAA,""2,9"""
"0060J00000wqWCcQAM,""2,2"""
"0060J00000uyK3nQAE,""2,8"""
"0060J00000tU4kXQAS,""3,0"""
"0060J00000rxN6UQAU,""2,1"""
"0060J00000rx2fRQAQ,""2,3"""
0060J00000voKX7QAM,\N
"0060J00000v070HQAQ,""2,9"""
"0060J00000wkjx6QAA,""2,9"""
0060J00000x2EAsQAM,\N
"0060J00000x0ZcmQAE,""2,8"""
"0060J00000pGj99QAC,""1,0"""
"0060J00000rxCkUQAU,""2,3"""
"0060J00000wfRa5QAE,""2,8"""
"0060J00000wm04JQAQ,""2,9"""
"0060J00000uyiK7QAI,""2,5"""
"0060J00000wfa23QAA,""2,8"""
"0060J00000vgzMdQAI,""3,0"""
"0062000000kaDpIAAU,""2,7"""
"0060J00000spac9QAA,""2,9"""
"0060J00000uyhefQAA,""3,0"""
"0060J00000vh4KzQAI,""2,9"""
"0062000000lmqX2AAI,""2,9"""
"0060J00000v1FUVQA2,""2,6"""
"0060J00000wqLJDQA2,""2,1"""
"0060J00000pmDzgQAE,""2,9"""
"0060J00000s5jKwQAI,""2,8"""
"0060J00000vguI9QAI,""1,0"""
"0062000000lmtbuAAA,""2,3"""
"0060J00000uyqwxQAA,""3,0"""
"0060J00000qAMUCQA4,""1,0"""
"0060J00000pfR0WQAU,""2,7"""
"0060J00000sqYeOQAU,""1,0"""
"0060J00000wq26vQAA,""2,8"""
"0060J00000t3cdWQAQ,""2,8"""
"0060J00000t3ShsQAE,""2,6"""
"0060J00000nbLg5QAE,""3,0"""
"0060J00000rxSSpQAM,""2,8"""
"0060J00000v1K02QAE,""2,3"""
"0060J00000tTedZQAS,""2,5"""
"0060J00000wpbEEQAY,""2,8"""
0060J00000oi8pwQAA,\N
"0060J00000woZGuQAM,""2,7"""
"0060J00000r27pYQAQ,""2,9"""
"0060J00000nv1mIQAQ,""2,8"""
"0060J00000rb0EDQAY,""3,0"""
"0060J00000sUNHnQAO,""3,0"""
"0060J00000wpKjjQAE,""2,9"""
0060J00000uyChcQAE,\N
"0060J00000t1w0uQAA,""1,0"""
"0060J00000qCOcdQAG,""2,9"""
"0060J00000vhCt3QAE,""1,0"""
"0060J00000wpw2jQAA,""2,9"""
"0060J00000lc6XSQAY,""2,5"""
"0062000000jEkzCAAS,""3,0"""
"0060J00000t27uYQAQ,""2,9"""
"0060J00000wpwIWQAY,""2,9"""
"0060J00000sVsuIQAS,""2,8"""
"0060J00000qgVwfQAE,""2,8"""
"0060J00000spWrZQAU,""2,9"""
"0060J00000t2L98QAE,""1,0"""
"0060J00000soEGuQAM,""2,9"""
"0060J00000vuvSTQAY,""2,9"""
"0060J00000xoczKQAQ,""2,9"""
"0060J00000xomEHQAY,""2,9"""
"0060J00000wqvg4QAA,""2,8"""
"0060J00000pfr7jQAA,""2,4"""
"0060J00000pG9VYQA0,""2,9"""
"0060J00000pkwgrQAA,""2,5"""
"0060J00000qzCVxQAM,""3,0"""
"0060J00000t2wrQQAQ,""2,9"""
"0062000000k6crgAAA,""3,0"""
"0060J00000ns5WEQAY,""2,9"""
"0060J00000rxEdXQAU,""1,0"""
"0060J00000lcAQMQA2,""2,9"""
"0060J00000srXoCQAU,""3,0"""
"0060J00000mDW4RQAW,""2,3"""
"0060J00000oS9BMQA0,""2,8"""
"0060J00000woK2LQAU,""1,0"""
"0062000000kqPFeAAM,""3,0"""
0060J00000r044WQAQ,\N
"0060J00000vvNDbQAM,""2,6"""
"0060J00000wpN6sQAE,""2,8"""
"0060J00000spjDOQAY,""2,5"""
"0060J00000wpzS0QAI,""2,9"""
"0060J00000nCHtLQAW,""2,7"""
"0060J00000oi1YrQAI,""3,0"""
"0060J00000ojIdwQAE,""2,8"""
"0060J00000r10Y8QAI,""3,0"""
"0060J00000qRqPvQAK,""3,0"""
"0060J00000oPc7cQAC,""2,9"""
"0060J00000soPczQAE,""2,5"""
"0060J00000spJJ7QAM,""2,9"""
"0060J00000spX8GQAU,""2,8"""
"0060J00000vgu6hQAA,""2,9"""
"0060J00000sqGTvQAM,""2,4"""
"0060J00000mAsOHQA0,""2,7"""
"0060J00000wpGf5QAE,""2,9"""
"0060J00000wpi4uQAA,""2,9"""
"0060J00000o5tTcQAI,""2,5"""
"0060J00000x1i1vQAA,""2,8"""
"0060J00000t1kabQAA,""2,7"""
"0062000000jTOimAAG,""2,8"""
"0060J00000t2DxlQAE,""2,9"""
"0060J00000t2pgDQAQ,""3,0"""
"0060J00000t2WzyQAE,""2,9"""
"0062000000llYC0AAM,""2,5"""
"0060J00000wfYJVQA2,""2,8"""
"0060J00000wgyRmQAI,""2,9"""
"0060J00000vvjX7QAI,""1,0"""
"0060J00000t3C5AQAU,""2,8"""
"0060J00000t3ISgQAM,""2,3"""
"0060J00000t3mpEQAQ,""2,8"""
"0060J00000vvjSlQAI,""2,9"""
"0060J00000tTTf0QAG,""3,0"""
0062000000k6QSwAAM,\N
"0060J00000wj7BGQAY,""3,0"""
"0060J00000tUFhBQAW,""2,5"""
"0060J00000t3gKjQAI,""2,8"""
"0060J00000wkNLaQAM,""3,0"""
"0060J00000uxu9cQAA,""2,8"""
"0060J00000ruKSqQAM,""2,8"""
"0060J00000wolqNQAQ,""2,9"""
0060J00000spolJQAQ,\N
"0060J00000qBj5FQAS,""2,9"""
"0060J00000wh6PCQAY,""2,9"""
"0060J00000t2xaQQAQ,""2,7"""
"0060J00000uyck8QAA,""3,0"""
"0060J00000uzkqlQAA,""2,4"""
"0060J00000poftvQAA,""2,8"""
"0060J00000rLHQjQAO,""3,0"""
0060J00000t3cMBQAY,\N
"0060J00000lc8QnQAI,""3,0"""
"0060J00000wp3AkQAI,""2,8"""
"0060J00000uytiHQAQ,""3,0"""
"0060J00000volr5QAA,""2,8"""
0060J00000r1YT7QAM,\N
"0060J00000pnT38QAE,""3,0"""
"0060J00000uzV9qQAE,""3,0"""
"0060J00000rbqygQAA,""3,0"""
"0060J00000v1GYdQAM,""2,4"""
"0060J00000wqXCWQA2,""2,7"""
"0060J00000rxV2DQAU,""2,3"""
"0060J00000v0GFuQAM,""2,2"""
"0060J00000v1CEAQA2,""2,9"""
"0060J00000rKpCfQAK,""1,0"""
"0060J00000x3Ii4QAE,""2,8"""
"0062000000iXj0UAAS,""2,5"""
"0060J00000uzRk2QAE,""2,9"""
"0060J00000o4wAsQAI,""3,0"""
"0060J00000voae1QAA,""3,0"""
"0060J00000rsVSkQAM,""2,5"""
"0060J00000neUknQAE,""3,0"""
"0060J00000wqORLQA2,""2,8"""
"0062000000iXXF4AAO,""2,9"""
"0062000000jVcO0AAK,""2,9"""
"0060J00000rxGe8QAE,""2,4"""
"0060J00000rxN0bQAE,""3,0"""
"0060J00000uyOadQAE,""2,8"""
"0060J00000rxA0sQAE,""2,8"""
"0060J00000wpiSmQAI,""2,8"""
"0060J00000t38Q2QAI,""1,0"""
"0060J00000wqyOfQAI,""2,9"""
"0060J00000oPx2UQAS,""1,0"""
"0060J00000t2hoiQAA,""3,0"""
0060J00000v02rsQAA,\N
"0062000000hWfoDAAS,""2,9"""
0062000000k4dONAAY,\N
"0060J00000wgzChQAI,""2,9"""
"0060J00000voiQTQAY,""3,0"""
"0060J00000xoc6XQAQ,""2,9"""
"0060J00000voisOQAQ,""2,7"""
"0060J00000t3kPxQAI,""3,0"""
"0060J00000sq3wNQAQ,""3,0"""
"0060J00000wq8VuQAI,""2,8"""
"0060J00000pEiaIQAS,""2,9"""
"0060J00000wq0TxQAI,""2,8"""
"0060J00000wpOV7QAM,""2,9"""
"0060J00000sqNVgQAM,""3,0"""
"0062000000kaGa1AAE,""2,7"""
"0060J00000mDOmJQAW,""2,9"""
"0060J00000whwT8QAI,""2,8"""
"0060J00000tUlaRQAS,""2,9"""
"0060J00000ncjDRQAY,""2,9"""
"0060J00000ruQnXQAU,""2,9"""
0060J00000lcKy8QAE,\N
"0060J00000oRcI5QAK,""2,8"""
"0062000000k7TlxAAE,""3,0"""
"0060J00000wq9CkQAI,""2,9"""
"0060J00000tU53FQAS,""3,0"""
"0060J00000voKXWQA2,""2,8"""
"0060J00000wpOrSQAU,""2,9"""
"0062000000iPSHTAA4,""3,0"""
"0060J00000uzsssQAA,""3,0"""
"0060J00000t3fLHQAY,""2,9"""
"0060J00000v08oRQAQ,""1,9"""
"0060J00000v1J0aQAE,""2,8"""
"0060J00000t1zKcQAI,""2,9"""
"0060J00000t2qUmQAI,""2,9"""
"0060J00000v1KHhQAM,""1,0"""
"0060J00000vgrVXQAY,""2,9"""
"0060J00000o7dX9QAI,""2,4"""
"0060J00000nsVWpQAM,""3,0"""
"0060J00000nEpo1QAC,""2,9"""
"0060J00000vvgA9QAI,""2,9"""
0060J00000pDZxVQAW,\N
"0060J00000pnUQDQA2,""2,4"""
"0060J00000v1NQOQA2,""1,0"""
"0060J00000wqhKoQAI,""1,0"""
"0060J00000raz3iQAA,""3,0"""
"0060J00000xod9WQAQ,""2,9"""
"0060J00000vuYKhQAM,""2,9"""
"0060J00000vh4stQAA,""3,0"""
"0060J00000vgyU8QAI,""2,9"""
0060J00000vnsL7QAI,\N
"0060J00000vo7w5QAA,""2,4"""
"0060J00000sVm6qQAC,""2,9"""
"0060J00000voaO9QAI,""3,0"""
"0060J00000sUQcZQAW,""3,0"""
"0060J00000websRQAQ,""3,0"""
"0060J00000vvNkzQAE,""2,9"""
"0060J00000wirojQAA,""2,8"""
"0060J00000whYGaQAM,""3,0"""
"0060J00000whY7GQAU,""2,9"""
"0060J00000wmGoZQAU,""2,9"""
"0060J00000woJBHQA2,""2,8"""
"0060J00000woR9iQAE,""2,9"""
"0060J00000x1brwQAA,""1,0"""
"0060J00000x2CtPQAU,""2,4"""
"0060J00000x3fHaQAI,""2,2"""
0060J00000x2FJjQAM,\N
"0060J00000x2urtQAA,""2,8"""
"0060J00000wpUzvQAE,""2,8"""
"0060J00000wpOgaQAE,""2,8"""
"0060J00000wpWOIQA2,""2,9"""
"0060J00000wqpoSQAQ,""2,9"""
"0060J00000wkMG9QAM,""2,8"""
"0060J00000whmnsQAA,""2,9"""
"0060J00000tUsiAQAS,""2,9"""
"0060J00000uyuK1QAI,""2,8"""
"0060J00000vubDJQAY,""2,9"""
"0060J00000whWJHQA2,""2,9"""
