		Confirmed End	Confirmed End	Confirmed End	Confirmed End	Confirmed End	Confirmed End	Confirmed End	Confirmed End	Confirmed End	Confirmed End	Confirmed End	Confirmed End	Confirmed End	Confirmed End	Confirmed End	Confirmed End
		2019	2019	2019	2019	2019	2019	2019	2019	2020	2020	2020	2020	2020	2020	2020	2020
Status		May	June	July	August	September	October	November	December	January	February	March	April	May	June	July	September
CHURNED	Amount Lost	12.008,45 €	1.591,11 €														
CHURNED	Number Opps	40	7														
OFFBOARDING	Amount Lost	214,67 €	9.172,93 €	4.391,33 €	8.657,90 €	1.138,39 €	1.878,97 €	1.374,87 €		166,94 €	143,40 €	217,00 €	158,42 €		540,24 €		258,06 €
OFFBOARDING	Number Opps	1	14	12	15	3	4	6		1	1	1	1		1		1
RETENTION	Amount Lost		434,00 €		2.459,90 €	2.336,90 €	3.836,35 €	429,31 €	2.482,80 €	2.427,27 €	499,52 €	364,73 €	1.300,24 €	544,21 €		672,66 €	
RETENTION	Number Opps		2		4	7	8	2	5	3	2	2	1	5		1	
Grand Total	Amount Lost	12.223,12 €	11.198,05 €	4.391,33 €	11.117,80 €	3.475,29 €	5.715,32 €	1.804,18 €	2.482,80 €	2.594,22 €	642,92 €	581,73 €	1.458,66 €	544,21 €	540,24 €	672,66 €	258,06 €
Grand Total	Number Opps	41	23	12	19	10	12	8	5	4	3	3	2	5	1	1	1
