"country";"locale__c";"delivery_area__c";"opportunityid";"name";"stagename";"status__c";"grand_total";"contract_duration__c";"hours_weekly__c";"churn_reason__c";"date_churn"
"de";"de-en";"de-berlin";"0060J00000qRjZhQAK";"Oberlo UG";"WON";"RESIGNED";"1901,06";NULL;"20";"Other";"2018-06-01"
"de";"de-de";"de-berlin";"0062000000kpUqXAAU";"WAW werbeartikel-ab-werk.de UG (haftungsbeschränkt)";"WON";"CANCELLED";"213,9";NULL;NULL;"Payment";"2018-06-01"
"de";"de-de";"de-frankfurt";"0060J00000r23GJQAY";"Reinvent Law GmbH";"WON";"RESIGNED";"931";"6";"9";"Quality";"2018-06-01"
"de";"de-de";"de-frankfurt";"0060J00000pfMXuQAM";"Business Tools GmbH";"WON";"RESIGNED";"282";"6";"2,5";"Quality";"2018-06-01"
"de";"de-de";"de-berlin";"0060J00000po0PfQAI";"Enway GmbH";"WON";"RESIGNED";"227";NULL;"2";"Quality";"2018-06-01"
"de";"de-de";"de-berlin";"0060J00000lcFuqQAE";"Dressel Pkw-Service GmbH & CO. KG";"CONTRACT FAILED";"CANCELLED";"1385,55";NULL;NULL;"Other";"2018-06-02"
"de";"de-de";"de-berlin";"0060J00000soJmCQAU";"Viessmann Digital GmbH (Torstraße 110, 10119 Berlin)";"WON";"RESIGNED";NULL;NULL;"2";"Other";"2018-06-04"
"de";"de-de";"de-berlin";"0062000000jCImuAAG";"NDP Media GmbH";"WON";"RESIGNED";"189";NULL;NULL;"Quality";"2018-06-04"
"de";"de-en";"de-berlin";"0060J00000s3bV9QAI";"Labfolder GmbH (Elsenstrasse 106)";"WON";"RESIGNED";"252";NULL;"2";"Price";"2018-06-05"
"de";"de-de";"de-berlin";"0060J00000ogvsXQAQ";"simple GmbH";"WON";"RESIGNED";"180";NULL;"2";"Other";"2018-06-05"
"de";"de-de";"de-cologne";"0060J00000sVvv4QAC";"Games Industry Network GAIN UG";"PENDING";"RESIGNED";"227";"6";"2";"Other";"2018-06-07"
"de";"de-de";"de-berlin";"0060J00000ncuvXQAQ";"Monokel Berlin GmbH";"WON";"RESIGNED";"225";NULL;"2,5";"Customer Service";"2018-06-07"
"de";"de-de";"de-nuremberg";"0060J00000po250QAA";"hib COWORKING";"WON";"CANCELLED";"292";NULL;"3";"No manpower";"2018-06-13"
"de";"de-de";NULL;"0060J00000rKAc8QAG";"B!Have2 GmbH";"WON";"CANCELLED";"217";NULL;"2";"No manpower";"2018-06-13"
"de";"de-de";"de-berlin";"0062000000kbjStAAI";"MAWISTA GmbH";"WON";"RESIGNED";"203,9";NULL;NULL;"Other";"2018-06-14"
"de";"de-de";"de-dusseldorf";"0060J00000spfQWQAY";"Dr. Petermann Wolfering Rechtsanwaltskanzlei (Couvenstr. 2)";"WON";"RESIGNED";"217";"6";"2";"Site closed down";"2018-06-18"
"de";"de-de";"de-stuttgart";"0060J00000o5QHQQA2";"Uli Knecht GmbH";"WON";"RESIGNED";"282";NULL;"2,5";"Quality";"2018-06-19"
"de";"de-de";"de-hamburg";"0060J00000qBsfnQAC";"Envela GmbH";"WON";"RESIGNED";"265";NULL;"2";"Quality";"2018-06-19"
"de";"de-en";"de-berlin";"0060J00000r0kPfQAI";"Cellusys / Brillant (Kollwitzstraße 69)";"CONTRACT FAILED";"RESIGNED";"180";NULL;"1,5";"Other";"2018-06-20"
"de";"de-de";"de-berlin";"0060J00000sq3S3QAI";"KISA AKADEMIE";"PENDING";"RESIGNED";"180";"6";"3";"Other";"2018-06-21"
"de";"de-de";"de-berlin";"0060J00000oQjPwQAK";"Dres. Reinhard Lakony und Eileen Behrens";"WON";"RESIGNED";"455";NULL;"4";"Quality";"2018-06-23"
"de";"de-de";"de-berlin";"0060J00000spTxUQAU";"AUTO1 Group GmbH (Potsdamer Platz 1)";"PENDING";"RESIGNED";"2567,1";NULL;"50";"Other";"2018-06-25"
"de";"de-de";NULL;"0060J00000qTiQqQAK";"VDV-Wirtschaftsdienste GmbH - Vereinigung der Vetragsfußballer";"WON";"RESIGNED";"227";NULL;"2";"Order cancelled by BAT";"2018-06-25"
"de";"de-de";"de-berlin";"0060J00000nu880QAA";"Damia GmbH";"WON";"RESIGNED";"197";NULL;"2";"Price";"2018-06-26"
"de";"de-de";"de-cologne";"0060J00000spzBrQAI";"BIRCH COVE Digital GmbH";"WON";"RESIGNED";"453,8";"6";"4";"Quality";"2018-06-26"
"de";"de-de";"de-berlin";"0060J00000pmAlqQAE";"LFB Lichtforum Berlin GmbH";"WON";"RESIGNED";"310";NULL;"3";"Other";"2018-06-27"
"de";"de-de";"de-berlin";"0060J00000pl7OJQAY";"Kulsen & Hennig";"WON";"RESIGNED";"217";NULL;"2";"Price";"2018-06-27"
"de";"de-de";"de-bonn";"0060J00000o3mQZQAY";"VFS Services Germany GmbH";"WON";"RESIGNED";"494";NULL;"5";"Other";"2018-06-28"
"de";"de-de";"de-berlin";"0062000000jEyIXAA0";"INCLOVER";"WON";"RESIGNED";"203,9";NULL;NULL;"Quality";"2018-06-29"
"de";"de-de";"de-stuttgart";"0062000000iZFZmAAO";"LaunchSpace";"WON";"RESIGNED";"213,9";NULL;NULL;"Other";"2018-06-29"
"de";"de-de";"de-berlin";"0060J00000oPGfgQAG";"LBS Ostdeutsche Landesbausparkasse AG";"WON";"RESIGNED";"217";NULL;"2";"Other";"2018-06-29"
