"year_month","orders_b2b","orders_b2c","cm_b2b_cases","cm_b2b_cases_partner","cm_b2b_cases_professional","cm_b2b_cases_unknown","cm_b2c_cases","cm_b2c_cases_partner","cm_b2c_cases_professional","cm_b2c_cases_unknown","inbound_b2b_calls_customers_cm","inbound_b2b_calls_customers_pm","inbound_b2b_calls_cm_others","inbound_b2b_calls_pm_others","inbound_b2b_calls_professionals_cm","inbound_b2b_calls_professionals_pm","inbound_b2c_calls_customers_cm","inbound_b2c_calls_others_cm","inbound_b2c_calls_professionals_cm","outbound_b2b_calls_customers_cm","outbound_b2b_calls_customers_pm","outbound_b2b_calls_professionals_cm","outbound_b2b_calls_professionals_pm","outbound_b2c_calls_customers_cm","outbound_b2c_calls_customers_pm","outbound_b2c_calls_professionals_pm","outbound_b2c_calls_professionals_cm","pm_b2b_cases","pm_b2b_cases_partner","pm_b2b_cases_professional","pm_b2b_cases_unknown"
"2018-01",3697,7746,1548,502,85,961,2467,439,76,1952,274,,53,,151,,1331,431,150,269,,282,,421,,,444,,,,
"2018-02",3657,7122,1371,494,113,764,1855,359,171,1325,264,,82,,141,,1137,385,80,259,,205,,317,2,,322,,,,
"2018-03",4052,7624,1571,523,100,948,2480,454,63,1963,250,,108,,141,,1419,507,78,271,,192,,216,,,255,1,1,,
"2018-04",3808,6952,1352,497,103,752,2329,4,82,2243,291,,155,,124,,1473,947,104,301,,165,,90,,,154,,,,
"2018-05",3855,6645,1491,609,118,764,2096,7,70,2019,298,,124,,131,,1216,928,71,334,,201,,101,,,212,,,,
"2018-06",4407,6630,1379,493,103,783,1798,3,71,1724,279,,112,,115,,1068,744,63,300,,142,,142,,,167,,,,
"2018-07",4884,5855,1390,351,191,848,1461,9,58,1394,367,,183,,130,,1063,785,77,333,,162,,142,,,251,1,1,,
"2018-08",5292,5560,1677,331,177,1169,1633,31,106,1496,436,,317,,121,,1385,1017,121,442,51,214,29,276,2,12,301,55,54,,1
"2018-09",4890,5013,1706,493,241,972,1351,6,240,1105,389,,323,,107,,1179,840,94,425,21,144,10,253,1,,220,212,204,6,2
"2018-10",5377,4334,1862,482,188,1192,1310,4,223,1083,454,,583,,203,,1020,978,112,481,29,153,14,145,,5,141,265,191,3,71
"2018-11",5592,3005,1705,737,176,792,1310,2,251,1057,233,,307,,141,,524,875,88,625,,298,3,144,,,233,220,158,12,50
"2018-12",4961,2539,1352,419,207,726,994,2,135,857,172,,230,,132,,369,531,120,641,,336,2,158,2,,292,303,256,24,23
"2019-01",6236,2989,2031,641,186,1204,736,4,70,662,230,2,266,94,136,36,474,508,87,760,1,483,10,148,3,3,399,603,474,61,68
"2019-02",6077,2837,1865,635,133,1097,700,1,90,609,229,1,280,42,174,67,453,432,63,698,3,328,19,188,1,1,250,564,500,9,55
"2019-03",6875,2892,310,117,16,177,86,,14,72,44,1,49,12,36,25,77,63,8,143,7,54,9,40,,,36,72,66,1,5
"2019-04",4437,371,,,,,,,,,,,,,,,,,,,,,,,,,,,,,
"2019-05",32,0,,,,,,,,,,,,,,,,,,,,,,,,,,,,,
"2019-06",1,0,,,,,,,,,,,,,,,,,,,,,,,,,,,,,
"2019-07",4,0,,,,,,,,,,,,,,,,,,,,,,,,,,,,,
"2019-08",4,0,,,,,,,,,,,,,,,,,,,,,,,,,,,,,
