year_month;orders_b2b;orders_b2c;cm_b2b_cases;cm_b2b_cases_partner;cm_b2b_cases_professional_bat;cm_b2b_cases_professional_partner;cm_b2b_cases_unknown;cm_b2c_cases;cm_b2c_cases_partner;cm_b2c_cases_professional_bat;cm_b2c_cases_professional_partner;cm_b2c_cases_unknown;inbound_b2b_calls_customers_cm;inbound_b2b_calls_customers_pm;inbound_b2b_calls_cm_others;inbound_b2b_calls_pm_others;inbound_b2b_calls_professionals_cm;inbound_b2b_calls_professionals_pm;inbound_b2c_calls_customers_cm;inbound_b2c_calls_others_cm;inbound_b2c_calls_professionals_cm;outbound_b2b_calls_customers_cm;outbound_b2b_calls_customers_pm;outbound_b2b_calls_professionals_cm;outbound_b2b_calls_professionals_pm;outbound_b2c_calls_customers_cm;outbound_b2c_calls_customers_pm;outbound_b2c_calls_professionals_pm;outbound_b2c_calls_professionals_cm;pm_b2b_cases;pm_b2b_cases_partner;pm_b2b_cases_professional_partner;pm_b2b_cases_unknown
2018-01;3697;7746;1548;502;31;54;961;2467;439;22;54;1952;274;;53;;151;;1331;431;150;269;;282;;421;;;444;;;;
2018-02;3657;7122;1371;494;54;59;764;1855;359;20;151;1325;264;;82;;141;;1137;385;80;259;;205;;317;2;;322;;;;
2018-03;4052;7624;1571;523;56;44;948;2480;454;8;55;1963;250;;108;;141;;1419;507;78;271;;192;;216;;;255;1;1;;
2018-04;3808;6952;1352;497;52;51;752;2329;4;25;57;2243;291;;155;;124;;1473;947;104;301;;165;;90;;;154;;;;
2018-05;3855;6645;1491;609;89;29;764;2096;7;27;43;2019;298;;124;;131;;1216;928;71;334;;201;;101;;;212;;;;
2018-06;4407;6630;1379;493;62;41;783;1798;3;21;50;1724;279;;112;;115;;1068;744;63;300;;142;;142;;;167;;;;
2018-07;4884;5855;1390;351;151;40;848;1461;9;20;38;1394;367;;183;;130;;1063;785;77;333;;162;;142;;;251;1;1;;
2018-08;5292;5560;1677;331;157;20;1169;1633;31;59;47;1496;436;;317;;121;;1385;1017;121;442;51;214;29;276;2;12;301;55;54;;1
2018-09;4890;5013;1706;493;213;28;972;1351;6;215;25;1105;389;;323;;107;;1179;840;94;425;21;144;10;253;1;;220;212;204;6;2
2018-10;5377;4334;1862;482;167;21;1192;1310;4;162;61;1083;454;;583;;203;;1020;978;112;481;29;153;14;145;;5;141;265;191;3;71
2018-11;5592;3005;1705;737;153;23;792;1310;2;204;47;1057;233;;307;;141;;524;875;88;625;;298;3;144;;;233;220;158;12;50
2018-12;4961;2539;1352;419;177;30;726;994;2;135;;857;172;;230;;132;;369;531;120;641;;336;2;158;2;;292;303;256;24;23
2019-01;6236;2989;2031;641;157;29;1204;736;4;69;1;662;230;2;266;94;136;36;474;508;87;760;1;483;10;148;3;3;399;603;474;61;68
2019-02;6077;2837;1866;637;122;11;1096;700;1;90;;609;229;1;280;42;174;67;453;432;63;698;3;328;19;188;1;1;250;564;500;9;55
2019-03;6864;2892;314;123;13;3;175;86;;14;;72;46;1;50;13;39;28;87;66;8;154;7;57;9;41;;;37;72;66;1;5
